# compile vhdl design source files
vhdl xil_defaultlib  \
"../../../../../HDLmodel/sources/Tremelo_src_MATLAB_Function.vhd" \
"../../../../../HDLmodel/DSPCtrlr.vhd" \
"../../../../../HDLmodel/DSPFunct.vhd" \
"../../../../../../../package/DSPPackage.vhd" \
"../../../../../HDLmodel/distortion.vhd" \
"../../../../../../../singleShot/vhdl/HDLmodel/singleShot.vhd" \
"../../../../../HDLmodel/DSPTop.vhd" \
"../../../../../HDLmodel/sources/FIRFilter_ip_src_FIR_Filter_pkg.vhd" \
"../../../../../HDLmodel/sources/Filter IP/FIRFilter_ip_src_FIR_Filter_pkg.vhd" \
"../../../../../HDLmodel/sources/Tremelo_src_Tremelo.vhd" \
"../../../../../HDLmodel/sources/Filter IP/Filter Only/FIRFilter_ip_src_FIR_Filter_pkg.vhd" \
"../../../../../HDLmodel/sources/Filter IP/FIRFilter_ip_src_Discrete_FIR_Filter_HDL_Optimized.vhd" \
"../../../../../../../../../arrays/package/arrayPackage.vhd" \
"../../../../../../../dualPortRegBlk1024x16WithLoad/vhdl/HDLmodel/dualPortRegBlk1024x16WithLoad.vhd" \
"../../../../../HDLmodel/testbench/DSPTop_TB.vhd" \

# Do not sort compile order
nosort
