Splitmain_rtwutil.obj
Splitmain_initialize.obj
Splitmain_terminate.obj
Splitmain.obj
fileManager.obj
fread.obj
Splitmain_emxutil.obj
Splitmain_emxAPI.obj
rt_nonfinite.obj
rtGetNaN.obj
rtGetInf.obj
