Analysis & Synthesis report for DE10_NANO_SoC_GHRD
Sun Jan  7 12:30:32 2018
Quartus Prime Version 17.0.0 Build 595 04/25/2017 SJ Lite Edition


---------------------
; Table of Contents ;
---------------------
  1. Legal Notice
  2. Analysis & Synthesis Summary
  3. Analysis & Synthesis Settings
  4. Parallel Compilation
  5. Analysis & Synthesis Messages
  6. Analysis & Synthesis Suppressed Messages



----------------
; Legal Notice ;
----------------
Copyright (C) 2017  Intel Corporation. All rights reserved.
Your use of Intel Corporation's design tools, logic functions 
and other software and tools, and its AMPP partner logic 
functions, and any output files from any of the foregoing 
(including device programming or simulation files), and any 
associated documentation or information are expressly subject 
to the terms and conditions of the Intel Program License 
Subscription Agreement, the Intel Quartus Prime License Agreement,
the Intel MegaCore Function License Agreement, or other 
applicable license agreement, including, without limitation, 
that your use is for the sole purpose of programming logic 
devices manufactured by Intel and sold by Intel or its 
authorized distributors.  Please refer to the applicable 
agreement for further details.



+---------------------------------------------------------------------------+
; Analysis & Synthesis Summary                                              ;
+-----------------------------+---------------------------------------------+
; Analysis & Synthesis Status ; Failed - Sun Jan  7 12:30:32 2018           ;
; Quartus Prime Version       ; 17.0.0 Build 595 04/25/2017 SJ Lite Edition ;
; Revision Name               ; DE10_NANO_SoC_GHRD                          ;
; Top-level Entity Name       ; DE10_NANO_SoC_GHRD                          ;
; Family                      ; Cyclone V                                   ;
; Logic utilization (in ALMs) ; N/A until Partition Merge                   ;
; Total registers             ; N/A until Partition Merge                   ;
; Total pins                  ; N/A until Partition Merge                   ;
; Total virtual pins          ; N/A until Partition Merge                   ;
; Total block memory bits     ; N/A until Partition Merge                   ;
; Total PLLs                  ; N/A until Partition Merge                   ;
; Total DLLs                  ; N/A until Partition Merge                   ;
+-----------------------------+---------------------------------------------+


+---------------------------------------------------------------------------------------------------------------------------+
; Analysis & Synthesis Settings                                                                                             ;
+---------------------------------------------------------------------------------+--------------------+--------------------+
; Option                                                                          ; Setting            ; Default Value      ;
+---------------------------------------------------------------------------------+--------------------+--------------------+
; Device                                                                          ; 5CSEBA6U23I7       ;                    ;
; Top-level entity name                                                           ; DE10_NANO_SoC_GHRD ; DE10_NANO_SoC_GHRD ;
; Family name                                                                     ; Cyclone V          ; Cyclone V          ;
; Use smart compilation                                                           ; Off                ; Off                ;
; Enable parallel Assembler and TimeQuest Timing Analyzer during compilation      ; On                 ; On                 ;
; Enable compact report table                                                     ; Off                ; Off                ;
; Restructure Multiplexers                                                        ; Auto               ; Auto               ;
; MLAB Add Timing Constraints For Mixed-Port Feed-Through Mode Setting Don't Care ; Off                ; Off                ;
; Create Debugging Nodes for IP Cores                                             ; Off                ; Off                ;
; Preserve fewer node names                                                       ; On                 ; On                 ;
; OpenCore Plus hardware evaluation                                               ; Enable             ; Enable             ;
; Verilog Version                                                                 ; Verilog_2001       ; Verilog_2001       ;
; VHDL Version                                                                    ; VHDL_1993          ; VHDL_1993          ;
; State Machine Processing                                                        ; Auto               ; Auto               ;
; Safe State Machine                                                              ; Off                ; Off                ;
; Extract Verilog State Machines                                                  ; On                 ; On                 ;
; Extract VHDL State Machines                                                     ; On                 ; On                 ;
; Ignore Verilog initial constructs                                               ; Off                ; Off                ;
; Iteration limit for constant Verilog loops                                      ; 5000               ; 5000               ;
; Iteration limit for non-constant Verilog loops                                  ; 250                ; 250                ;
; Add Pass-Through Logic to Inferred RAMs                                         ; On                 ; On                 ;
; Infer RAMs from Raw Logic                                                       ; On                 ; On                 ;
; Parallel Synthesis                                                              ; On                 ; On                 ;
; DSP Block Balancing                                                             ; Auto               ; Auto               ;
; NOT Gate Push-Back                                                              ; On                 ; On                 ;
; Power-Up Don't Care                                                             ; On                 ; On                 ;
; Remove Redundant Logic Cells                                                    ; Off                ; Off                ;
; Remove Duplicate Registers                                                      ; On                 ; On                 ;
; Ignore CARRY Buffers                                                            ; Off                ; Off                ;
; Ignore CASCADE Buffers                                                          ; Off                ; Off                ;
; Ignore GLOBAL Buffers                                                           ; Off                ; Off                ;
; Ignore ROW GLOBAL Buffers                                                       ; Off                ; Off                ;
; Ignore LCELL Buffers                                                            ; Off                ; Off                ;
; Ignore SOFT Buffers                                                             ; On                 ; On                 ;
; Limit AHDL Integers to 32 Bits                                                  ; Off                ; Off                ;
; Optimization Technique                                                          ; Balanced           ; Balanced           ;
; Carry Chain Length                                                              ; 70                 ; 70                 ;
; Auto Carry Chains                                                               ; On                 ; On                 ;
; Auto Open-Drain Pins                                                            ; On                 ; On                 ;
; Perform WYSIWYG Primitive Resynthesis                                           ; Off                ; Off                ;
; Auto ROM Replacement                                                            ; On                 ; On                 ;
; Auto RAM Replacement                                                            ; On                 ; On                 ;
; Auto DSP Block Replacement                                                      ; On                 ; On                 ;
; Auto Shift Register Replacement                                                 ; Auto               ; Auto               ;
; Allow Shift Register Merging across Hierarchies                                 ; Auto               ; Auto               ;
; Auto Clock Enable Replacement                                                   ; On                 ; On                 ;
; Strict RAM Replacement                                                          ; Off                ; Off                ;
; Allow Synchronous Control Signals                                               ; On                 ; On                 ;
; Force Use of Synchronous Clear Signals                                          ; Off                ; Off                ;
; Auto Resource Sharing                                                           ; Off                ; Off                ;
; Allow Any RAM Size For Recognition                                              ; Off                ; Off                ;
; Allow Any ROM Size For Recognition                                              ; Off                ; Off                ;
; Allow Any Shift Register Size For Recognition                                   ; Off                ; Off                ;
; Use LogicLock Constraints during Resource Balancing                             ; On                 ; On                 ;
; Ignore translate_off and synthesis_off directives                               ; Off                ; Off                ;
; Timing-Driven Synthesis                                                         ; On                 ; On                 ;
; Report Parameter Settings                                                       ; On                 ; On                 ;
; Report Source Assignments                                                       ; On                 ; On                 ;
; Report Connectivity Checks                                                      ; On                 ; On                 ;
; Ignore Maximum Fan-Out Assignments                                              ; Off                ; Off                ;
; Synchronization Register Chain Length                                           ; 3                  ; 3                  ;
; PowerPlay Power Optimization During Synthesis                                   ; Normal compilation ; Normal compilation ;
; HDL message level                                                               ; Level2             ; Level2             ;
; Suppress Register Optimization Related Messages                                 ; Off                ; Off                ;
; Number of Removed Registers Reported in Synthesis Report                        ; 5000               ; 5000               ;
; Number of Swept Nodes Reported in Synthesis Report                              ; 5000               ; 5000               ;
; Number of Inverted Registers Reported in Synthesis Report                       ; 100                ; 100                ;
; Clock MUX Protection                                                            ; On                 ; On                 ;
; Auto Gated Clock Conversion                                                     ; Off                ; Off                ;
; Block Design Naming                                                             ; Auto               ; Auto               ;
; SDC constraint protection                                                       ; Off                ; Off                ;
; Synthesis Effort                                                                ; Auto               ; Auto               ;
; Shift Register Replacement - Allow Asynchronous Clear Signal                    ; On                 ; On                 ;
; Pre-Mapping Resynthesis Optimization                                            ; Off                ; Off                ;
; Analysis & Synthesis Message Level                                              ; Medium             ; Medium             ;
; Disable Register Merging Across Hierarchies                                     ; Auto               ; Auto               ;
; Resource Aware Inference For Block RAM                                          ; On                 ; On                 ;
; Automatic Parallel Synthesis                                                    ; On                 ; On                 ;
; Partial Reconfiguration Bitstream ID                                            ; Off                ; Off                ;
+---------------------------------------------------------------------------------+--------------------+--------------------+


+------------------------------------------+
; Parallel Compilation                     ;
+----------------------------+-------------+
; Processors                 ; Number      ;
+----------------------------+-------------+
; Number detected on machine ; 4           ;
; Maximum allowed            ; 2           ;
;                            ;             ;
; Average used               ; 1.00        ;
; Maximum used               ; 1           ;
;                            ;             ;
; Usage by Processor         ; % Time Used ;
;     Processor 1            ; 100.0%      ;
+----------------------------+-------------+


+-------------------------------+
; Analysis & Synthesis Messages ;
+-------------------------------+
Info: *******************************************************************
Info: Running Quartus Prime Analysis & Synthesis
    Info: Version 17.0.0 Build 595 04/25/2017 SJ Lite Edition
    Info: Processing started: Sun Jan  7 12:30:02 2018
Info: Command: quartus_map --read_settings_files=on --write_settings_files=off DE10_NANO_SoC_GHRD -c DE10_NANO_SoC_GHRD
Warning (18236): Number of processors has not been specified which may cause overloading on shared machines.  Set the global assignment NUM_PARALLEL_PROCESSORS in your QSF to an appropriate value for best performance.
Info (20030): Parallel compilation is enabled and will use 2 of the 2 processors detected
Warning (10275): Verilog HDL Module Instantiation warning at DE10_NANO_SoC_GHRD.v(206): ignored dangling comma in List of Port Connections File: /home/daire/Final_Year/Project/arthur/DE10_NANO_SoC_GHRD/DE10_NANO_SoC_GHRD.v Line: 206
Info (12021): Found 1 design units, including 1 entities, in source file DE10_NANO_SoC_GHRD.v
    Info (12023): Found entity 1: DE10_NANO_SoC_GHRD File: /home/daire/Final_Year/Project/arthur/DE10_NANO_SoC_GHRD/DE10_NANO_SoC_GHRD.v Line: 6
Warning (12019): Can't analyze file -- file ip/intr_capturer/intr_capturer.v is missing
Info (12021): Found 1 design units, including 1 entities, in source file ip/edge_detect/altera_edge_detector.v
    Info (12023): Found entity 1: altera_edge_detector File: /home/daire/Final_Year/Project/arthur/DE10_NANO_SoC_GHRD/ip/edge_detect/altera_edge_detector.v Line: 1
Info (12021): Found 1 design units, including 1 entities, in source file ip/debounce/debounce.v
    Info (12023): Found entity 1: debounce File: /home/daire/Final_Year/Project/arthur/DE10_NANO_SoC_GHRD/ip/debounce/debounce.v Line: 13
Info (12021): Found 1 design units, including 1 entities, in source file ip/altsource_probe/hps_reset.v
    Info (12023): Found entity 1: hps_reset File: /home/daire/Final_Year/Project/arthur/DE10_NANO_SoC_GHRD/ip/altsource_probe/hps_reset.v Line: 40
Info (12021): Found 1 design units, including 1 entities, in source file soc_system/synthesis/soc_system.v
    Info (12023): Found entity 1: soc_system File: /home/daire/Final_Year/Project/arthur/DE10_NANO_SoC_GHRD/soc_system/synthesis/soc_system.v Line: 6
Info (12021): Found 1 design units, including 1 entities, in source file soc_system/synthesis/submodules/altera_reset_controller.v
    Info (12023): Found entity 1: altera_reset_controller File: /home/daire/Final_Year/Project/arthur/DE10_NANO_SoC_GHRD/soc_system/synthesis/submodules/altera_reset_controller.v Line: 42
Info (12021): Found 1 design units, including 1 entities, in source file soc_system/synthesis/submodules/altera_reset_synchronizer.v
    Info (12023): Found entity 1: altera_reset_synchronizer File: /home/daire/Final_Year/Project/arthur/DE10_NANO_SoC_GHRD/soc_system/synthesis/submodules/altera_reset_synchronizer.v Line: 24
Info (12021): Found 1 design units, including 1 entities, in source file soc_system/synthesis/submodules/soc_system_irq_mapper_002.sv
    Info (12023): Found entity 1: soc_system_irq_mapper_002 File: /home/daire/Final_Year/Project/arthur/DE10_NANO_SoC_GHRD/soc_system/synthesis/submodules/soc_system_irq_mapper_002.sv Line: 31
Info (12021): Found 1 design units, including 1 entities, in source file soc_system/synthesis/submodules/soc_system_irq_mapper_001.sv
    Info (12023): Found entity 1: soc_system_irq_mapper_001 File: /home/daire/Final_Year/Project/arthur/DE10_NANO_SoC_GHRD/soc_system/synthesis/submodules/soc_system_irq_mapper_001.sv Line: 31
Info (12021): Found 1 design units, including 1 entities, in source file soc_system/synthesis/submodules/soc_system_irq_mapper.sv
    Info (12023): Found entity 1: soc_system_irq_mapper File: /home/daire/Final_Year/Project/arthur/DE10_NANO_SoC_GHRD/soc_system/synthesis/submodules/soc_system_irq_mapper.sv Line: 31
Info (12021): Found 1 design units, including 1 entities, in source file soc_system/synthesis/submodules/soc_system_mm_interconnect_3.v
    Info (12023): Found entity 1: soc_system_mm_interconnect_3 File: /home/daire/Final_Year/Project/arthur/DE10_NANO_SoC_GHRD/soc_system/synthesis/submodules/soc_system_mm_interconnect_3.v Line: 9
Info (12021): Found 1 design units, including 1 entities, in source file soc_system/synthesis/submodules/soc_system_mm_interconnect_3_avalon_st_adapter.v
    Info (12023): Found entity 1: soc_system_mm_interconnect_3_avalon_st_adapter File: /home/daire/Final_Year/Project/arthur/DE10_NANO_SoC_GHRD/soc_system/synthesis/submodules/soc_system_mm_interconnect_3_avalon_st_adapter.v Line: 9
Info (12021): Found 1 design units, including 1 entities, in source file soc_system/synthesis/submodules/soc_system_mm_interconnect_3_avalon_st_adapter_error_adapter_0.sv
    Info (12023): Found entity 1: soc_system_mm_interconnect_3_avalon_st_adapter_error_adapter_0 File: /home/daire/Final_Year/Project/arthur/DE10_NANO_SoC_GHRD/soc_system/synthesis/submodules/soc_system_mm_interconnect_3_avalon_st_adapter_error_adapter_0.sv Line: 66
Info (12021): Found 1 design units, including 1 entities, in source file soc_system/synthesis/submodules/altera_merlin_width_adapter.sv
    Info (12023): Found entity 1: altera_merlin_width_adapter File: /home/daire/Final_Year/Project/arthur/DE10_NANO_SoC_GHRD/soc_system/synthesis/submodules/altera_merlin_width_adapter.sv Line: 25
Info (12021): Found 1 design units, including 1 entities, in source file soc_system/synthesis/submodules/altera_merlin_address_alignment.sv
    Info (12023): Found entity 1: altera_merlin_address_alignment File: /home/daire/Final_Year/Project/arthur/DE10_NANO_SoC_GHRD/soc_system/synthesis/submodules/altera_merlin_address_alignment.sv Line: 26
Info (12021): Found 1 design units, including 1 entities, in source file soc_system/synthesis/submodules/altera_merlin_burst_uncompressor.sv
    Info (12023): Found entity 1: altera_merlin_burst_uncompressor File: /home/daire/Final_Year/Project/arthur/DE10_NANO_SoC_GHRD/soc_system/synthesis/submodules/altera_merlin_burst_uncompressor.sv Line: 40
Info (12021): Found 1 design units, including 1 entities, in source file soc_system/synthesis/submodules/soc_system_mm_interconnect_3_rsp_mux.sv
    Info (12023): Found entity 1: soc_system_mm_interconnect_3_rsp_mux File: /home/daire/Final_Year/Project/arthur/DE10_NANO_SoC_GHRD/soc_system/synthesis/submodules/soc_system_mm_interconnect_3_rsp_mux.sv Line: 51
Info (12021): Found 2 design units, including 2 entities, in source file soc_system/synthesis/submodules/altera_merlin_arbitrator.sv
    Info (12023): Found entity 1: altera_merlin_arbitrator File: /home/daire/Final_Year/Project/arthur/DE10_NANO_SoC_GHRD/soc_system/synthesis/submodules/altera_merlin_arbitrator.sv Line: 103
    Info (12023): Found entity 2: altera_merlin_arb_adder File: /home/daire/Final_Year/Project/arthur/DE10_NANO_SoC_GHRD/soc_system/synthesis/submodules/altera_merlin_arbitrator.sv Line: 228
Info (12021): Found 1 design units, including 1 entities, in source file soc_system/synthesis/submodules/soc_system_mm_interconnect_3_cmd_mux.sv
    Info (12023): Found entity 1: soc_system_mm_interconnect_3_cmd_mux File: /home/daire/Final_Year/Project/arthur/DE10_NANO_SoC_GHRD/soc_system/synthesis/submodules/soc_system_mm_interconnect_3_cmd_mux.sv Line: 51
Info (12021): Found 1 design units, including 1 entities, in source file soc_system/synthesis/submodules/soc_system_mm_interconnect_3_cmd_demux.sv
    Info (12023): Found entity 1: soc_system_mm_interconnect_3_cmd_demux File: /home/daire/Final_Year/Project/arthur/DE10_NANO_SoC_GHRD/soc_system/synthesis/submodules/soc_system_mm_interconnect_3_cmd_demux.sv Line: 43
Info (12021): Found 2 design units, including 2 entities, in source file soc_system/synthesis/submodules/soc_system_mm_interconnect_3_router_001.sv
    Info (12023): Found entity 1: soc_system_mm_interconnect_3_router_001_default_decode File: /home/daire/Final_Year/Project/arthur/DE10_NANO_SoC_GHRD/soc_system/synthesis/submodules/soc_system_mm_interconnect_3_router_001.sv Line: 45
    Info (12023): Found entity 2: soc_system_mm_interconnect_3_router_001 File: /home/daire/Final_Year/Project/arthur/DE10_NANO_SoC_GHRD/soc_system/synthesis/submodules/soc_system_mm_interconnect_3_router_001.sv Line: 84
Info (12021): Found 2 design units, including 2 entities, in source file soc_system/synthesis/submodules/soc_system_mm_interconnect_3_router.sv
    Info (12023): Found entity 1: soc_system_mm_interconnect_3_router_default_decode File: /home/daire/Final_Year/Project/arthur/DE10_NANO_SoC_GHRD/soc_system/synthesis/submodules/soc_system_mm_interconnect_3_router.sv Line: 45
    Info (12023): Found entity 2: soc_system_mm_interconnect_3_router File: /home/daire/Final_Year/Project/arthur/DE10_NANO_SoC_GHRD/soc_system/synthesis/submodules/soc_system_mm_interconnect_3_router.sv Line: 84
Info (12021): Found 1 design units, including 1 entities, in source file soc_system/synthesis/submodules/altera_avalon_sc_fifo.v
    Info (12023): Found entity 1: altera_avalon_sc_fifo File: /home/daire/Final_Year/Project/arthur/DE10_NANO_SoC_GHRD/soc_system/synthesis/submodules/altera_avalon_sc_fifo.v Line: 21
Info (12021): Found 1 design units, including 1 entities, in source file soc_system/synthesis/submodules/altera_merlin_slave_agent.sv
    Info (12023): Found entity 1: altera_merlin_slave_agent File: /home/daire/Final_Year/Project/arthur/DE10_NANO_SoC_GHRD/soc_system/synthesis/submodules/altera_merlin_slave_agent.sv Line: 34
Info (12021): Found 1 design units, including 1 entities, in source file soc_system/synthesis/submodules/altera_merlin_master_agent.sv
    Info (12023): Found entity 1: altera_merlin_master_agent File: /home/daire/Final_Year/Project/arthur/DE10_NANO_SoC_GHRD/soc_system/synthesis/submodules/altera_merlin_master_agent.sv Line: 28
Info (12021): Found 1 design units, including 1 entities, in source file soc_system/synthesis/submodules/altera_merlin_slave_translator.sv
    Info (12023): Found entity 1: altera_merlin_slave_translator File: /home/daire/Final_Year/Project/arthur/DE10_NANO_SoC_GHRD/soc_system/synthesis/submodules/altera_merlin_slave_translator.sv Line: 35
Info (12021): Found 1 design units, including 1 entities, in source file soc_system/synthesis/submodules/altera_merlin_master_translator.sv
    Info (12023): Found entity 1: altera_merlin_master_translator File: /home/daire/Final_Year/Project/arthur/DE10_NANO_SoC_GHRD/soc_system/synthesis/submodules/altera_merlin_master_translator.sv Line: 32
Info (12021): Found 1 design units, including 1 entities, in source file soc_system/synthesis/submodules/soc_system_mm_interconnect_2.v
    Info (12023): Found entity 1: soc_system_mm_interconnect_2 File: /home/daire/Final_Year/Project/arthur/DE10_NANO_SoC_GHRD/soc_system/synthesis/submodules/soc_system_mm_interconnect_2.v Line: 9
Info (12021): Found 1 design units, including 1 entities, in source file soc_system/synthesis/submodules/soc_system_mm_interconnect_2_rsp_mux.sv
    Info (12023): Found entity 1: soc_system_mm_interconnect_2_rsp_mux File: /home/daire/Final_Year/Project/arthur/DE10_NANO_SoC_GHRD/soc_system/synthesis/submodules/soc_system_mm_interconnect_2_rsp_mux.sv Line: 51
Info (12021): Found 1 design units, including 1 entities, in source file soc_system/synthesis/submodules/soc_system_mm_interconnect_2_rsp_demux.sv
    Info (12023): Found entity 1: soc_system_mm_interconnect_2_rsp_demux File: /home/daire/Final_Year/Project/arthur/DE10_NANO_SoC_GHRD/soc_system/synthesis/submodules/soc_system_mm_interconnect_2_rsp_demux.sv Line: 43
Info (12021): Found 1 design units, including 1 entities, in source file soc_system/synthesis/submodules/soc_system_mm_interconnect_2_cmd_mux.sv
    Info (12023): Found entity 1: soc_system_mm_interconnect_2_cmd_mux File: /home/daire/Final_Year/Project/arthur/DE10_NANO_SoC_GHRD/soc_system/synthesis/submodules/soc_system_mm_interconnect_2_cmd_mux.sv Line: 51
Info (12021): Found 1 design units, including 1 entities, in source file soc_system/synthesis/submodules/soc_system_mm_interconnect_2_cmd_demux.sv
    Info (12023): Found entity 1: soc_system_mm_interconnect_2_cmd_demux File: /home/daire/Final_Year/Project/arthur/DE10_NANO_SoC_GHRD/soc_system/synthesis/submodules/soc_system_mm_interconnect_2_cmd_demux.sv Line: 43
Info (12021): Found 1 design units, including 1 entities, in source file soc_system/synthesis/submodules/altera_merlin_traffic_limiter.sv
    Info (12023): Found entity 1: altera_merlin_traffic_limiter File: /home/daire/Final_Year/Project/arthur/DE10_NANO_SoC_GHRD/soc_system/synthesis/submodules/altera_merlin_traffic_limiter.sv Line: 49
Info (12021): Found 2 design units, including 2 entities, in source file soc_system/synthesis/submodules/altera_merlin_reorder_memory.sv
    Info (12023): Found entity 1: altera_merlin_reorder_memory File: /home/daire/Final_Year/Project/arthur/DE10_NANO_SoC_GHRD/soc_system/synthesis/submodules/altera_merlin_reorder_memory.sv Line: 28
    Info (12023): Found entity 2: memory_pointer_controller File: /home/daire/Final_Year/Project/arthur/DE10_NANO_SoC_GHRD/soc_system/synthesis/submodules/altera_merlin_reorder_memory.sv Line: 185
Info (12021): Found 1 design units, including 1 entities, in source file soc_system/synthesis/submodules/altera_avalon_st_pipeline_base.v
    Info (12023): Found entity 1: altera_avalon_st_pipeline_base File: /home/daire/Final_Year/Project/arthur/DE10_NANO_SoC_GHRD/soc_system/synthesis/submodules/altera_avalon_st_pipeline_base.v Line: 22
Info (12021): Found 2 design units, including 2 entities, in source file soc_system/synthesis/submodules/soc_system_mm_interconnect_2_router_001.sv
    Info (12023): Found entity 1: soc_system_mm_interconnect_2_router_001_default_decode File: /home/daire/Final_Year/Project/arthur/DE10_NANO_SoC_GHRD/soc_system/synthesis/submodules/soc_system_mm_interconnect_2_router_001.sv Line: 45
    Info (12023): Found entity 2: soc_system_mm_interconnect_2_router_001 File: /home/daire/Final_Year/Project/arthur/DE10_NANO_SoC_GHRD/soc_system/synthesis/submodules/soc_system_mm_interconnect_2_router_001.sv Line: 84
Info (12021): Found 2 design units, including 2 entities, in source file soc_system/synthesis/submodules/soc_system_mm_interconnect_2_router.sv
    Info (12023): Found entity 1: soc_system_mm_interconnect_2_router_default_decode File: /home/daire/Final_Year/Project/arthur/DE10_NANO_SoC_GHRD/soc_system/synthesis/submodules/soc_system_mm_interconnect_2_router.sv Line: 45
    Info (12023): Found entity 2: soc_system_mm_interconnect_2_router File: /home/daire/Final_Year/Project/arthur/DE10_NANO_SoC_GHRD/soc_system/synthesis/submodules/soc_system_mm_interconnect_2_router.sv Line: 84
Info (12021): Found 1 design units, including 1 entities, in source file soc_system/synthesis/submodules/altera_merlin_axi_slave_ni.sv
    Info (12023): Found entity 1: altera_merlin_axi_slave_ni File: /home/daire/Final_Year/Project/arthur/DE10_NANO_SoC_GHRD/soc_system/synthesis/submodules/altera_merlin_axi_slave_ni.sv Line: 22
Info (12021): Found 1 design units, including 1 entities, in source file soc_system/synthesis/submodules/soc_system_mm_interconnect_1.v
    Info (12023): Found entity 1: soc_system_mm_interconnect_1 File: /home/daire/Final_Year/Project/arthur/DE10_NANO_SoC_GHRD/soc_system/synthesis/submodules/soc_system_mm_interconnect_1.v Line: 9
Info (12021): Found 1 design units, including 1 entities, in source file soc_system/synthesis/submodules/soc_system_mm_interconnect_0_avalon_st_adapter.v
    Info (12023): Found entity 1: soc_system_mm_interconnect_0_avalon_st_adapter File: /home/daire/Final_Year/Project/arthur/DE10_NANO_SoC_GHRD/soc_system/synthesis/submodules/soc_system_mm_interconnect_0_avalon_st_adapter.v Line: 9
Info (12021): Found 1 design units, including 1 entities, in source file soc_system/synthesis/submodules/soc_system_mm_interconnect_0_avalon_st_adapter_error_adapter_0.sv
    Info (12023): Found entity 1: soc_system_mm_interconnect_0_avalon_st_adapter_error_adapter_0 File: /home/daire/Final_Year/Project/arthur/DE10_NANO_SoC_GHRD/soc_system/synthesis/submodules/soc_system_mm_interconnect_0_avalon_st_adapter_error_adapter_0.sv Line: 66
Info (12021): Found 1 design units, including 1 entities, in source file soc_system/synthesis/submodules/soc_system_mm_interconnect_1_rsp_mux_001.sv
    Info (12023): Found entity 1: soc_system_mm_interconnect_1_rsp_mux_001 File: /home/daire/Final_Year/Project/arthur/DE10_NANO_SoC_GHRD/soc_system/synthesis/submodules/soc_system_mm_interconnect_1_rsp_mux_001.sv Line: 51
Info (12021): Found 1 design units, including 1 entities, in source file soc_system/synthesis/submodules/soc_system_mm_interconnect_1_rsp_mux.sv
    Info (12023): Found entity 1: soc_system_mm_interconnect_1_rsp_mux File: /home/daire/Final_Year/Project/arthur/DE10_NANO_SoC_GHRD/soc_system/synthesis/submodules/soc_system_mm_interconnect_1_rsp_mux.sv Line: 51
Info (12021): Found 1 design units, including 1 entities, in source file soc_system/synthesis/submodules/soc_system_mm_interconnect_1_rsp_demux_002.sv
    Info (12023): Found entity 1: soc_system_mm_interconnect_1_rsp_demux_002 File: /home/daire/Final_Year/Project/arthur/DE10_NANO_SoC_GHRD/soc_system/synthesis/submodules/soc_system_mm_interconnect_1_rsp_demux_002.sv Line: 43
Info (12021): Found 1 design units, including 1 entities, in source file soc_system/synthesis/submodules/soc_system_mm_interconnect_1_rsp_demux.sv
    Info (12023): Found entity 1: soc_system_mm_interconnect_1_rsp_demux File: /home/daire/Final_Year/Project/arthur/DE10_NANO_SoC_GHRD/soc_system/synthesis/submodules/soc_system_mm_interconnect_1_rsp_demux.sv Line: 43
Info (12021): Found 1 design units, including 1 entities, in source file soc_system/synthesis/submodules/soc_system_mm_interconnect_1_cmd_mux_002.sv
    Info (12023): Found entity 1: soc_system_mm_interconnect_1_cmd_mux_002 File: /home/daire/Final_Year/Project/arthur/DE10_NANO_SoC_GHRD/soc_system/synthesis/submodules/soc_system_mm_interconnect_1_cmd_mux_002.sv Line: 51
Info (12021): Found 1 design units, including 1 entities, in source file soc_system/synthesis/submodules/soc_system_mm_interconnect_1_cmd_mux.sv
    Info (12023): Found entity 1: soc_system_mm_interconnect_1_cmd_mux File: /home/daire/Final_Year/Project/arthur/DE10_NANO_SoC_GHRD/soc_system/synthesis/submodules/soc_system_mm_interconnect_1_cmd_mux.sv Line: 51
Info (12021): Found 1 design units, including 1 entities, in source file soc_system/synthesis/submodules/soc_system_mm_interconnect_1_cmd_demux_001.sv
    Info (12023): Found entity 1: soc_system_mm_interconnect_1_cmd_demux_001 File: /home/daire/Final_Year/Project/arthur/DE10_NANO_SoC_GHRD/soc_system/synthesis/submodules/soc_system_mm_interconnect_1_cmd_demux_001.sv Line: 43
Info (12021): Found 1 design units, including 1 entities, in source file soc_system/synthesis/submodules/soc_system_mm_interconnect_1_cmd_demux.sv
    Info (12023): Found entity 1: soc_system_mm_interconnect_1_cmd_demux File: /home/daire/Final_Year/Project/arthur/DE10_NANO_SoC_GHRD/soc_system/synthesis/submodules/soc_system_mm_interconnect_1_cmd_demux.sv Line: 43
Info (12021): Found 2 design units, including 2 entities, in source file soc_system/synthesis/submodules/soc_system_mm_interconnect_1_router_004.sv
    Info (12023): Found entity 1: soc_system_mm_interconnect_1_router_004_default_decode File: /home/daire/Final_Year/Project/arthur/DE10_NANO_SoC_GHRD/soc_system/synthesis/submodules/soc_system_mm_interconnect_1_router_004.sv Line: 45
    Info (12023): Found entity 2: soc_system_mm_interconnect_1_router_004 File: /home/daire/Final_Year/Project/arthur/DE10_NANO_SoC_GHRD/soc_system/synthesis/submodules/soc_system_mm_interconnect_1_router_004.sv Line: 84
Info (12021): Found 2 design units, including 2 entities, in source file soc_system/synthesis/submodules/soc_system_mm_interconnect_1_router_002.sv
    Info (12023): Found entity 1: soc_system_mm_interconnect_1_router_002_default_decode File: /home/daire/Final_Year/Project/arthur/DE10_NANO_SoC_GHRD/soc_system/synthesis/submodules/soc_system_mm_interconnect_1_router_002.sv Line: 45
    Info (12023): Found entity 2: soc_system_mm_interconnect_1_router_002 File: /home/daire/Final_Year/Project/arthur/DE10_NANO_SoC_GHRD/soc_system/synthesis/submodules/soc_system_mm_interconnect_1_router_002.sv Line: 84
Info (12021): Found 2 design units, including 2 entities, in source file soc_system/synthesis/submodules/soc_system_mm_interconnect_1_router_001.sv
    Info (12023): Found entity 1: soc_system_mm_interconnect_1_router_001_default_decode File: /home/daire/Final_Year/Project/arthur/DE10_NANO_SoC_GHRD/soc_system/synthesis/submodules/soc_system_mm_interconnect_1_router_001.sv Line: 45
    Info (12023): Found entity 2: soc_system_mm_interconnect_1_router_001 File: /home/daire/Final_Year/Project/arthur/DE10_NANO_SoC_GHRD/soc_system/synthesis/submodules/soc_system_mm_interconnect_1_router_001.sv Line: 84
Info (12021): Found 2 design units, including 2 entities, in source file soc_system/synthesis/submodules/soc_system_mm_interconnect_1_router.sv
    Info (12023): Found entity 1: soc_system_mm_interconnect_1_router_default_decode File: /home/daire/Final_Year/Project/arthur/DE10_NANO_SoC_GHRD/soc_system/synthesis/submodules/soc_system_mm_interconnect_1_router.sv Line: 45
    Info (12023): Found entity 2: soc_system_mm_interconnect_1_router File: /home/daire/Final_Year/Project/arthur/DE10_NANO_SoC_GHRD/soc_system/synthesis/submodules/soc_system_mm_interconnect_1_router.sv Line: 84
Info (12021): Found 1 design units, including 1 entities, in source file soc_system/synthesis/submodules/soc_system_mm_interconnect_0.v
    Info (12023): Found entity 1: soc_system_mm_interconnect_0 File: /home/daire/Final_Year/Project/arthur/DE10_NANO_SoC_GHRD/soc_system/synthesis/submodules/soc_system_mm_interconnect_0.v Line: 9
Info (12021): Found 1 design units, including 1 entities, in source file soc_system/synthesis/submodules/soc_system_mm_interconnect_0_rsp_mux.sv
    Info (12023): Found entity 1: soc_system_mm_interconnect_0_rsp_mux File: /home/daire/Final_Year/Project/arthur/DE10_NANO_SoC_GHRD/soc_system/synthesis/submodules/soc_system_mm_interconnect_0_rsp_mux.sv Line: 51
Info (12021): Found 1 design units, including 1 entities, in source file soc_system/synthesis/submodules/soc_system_mm_interconnect_0_rsp_demux.sv
    Info (12023): Found entity 1: soc_system_mm_interconnect_0_rsp_demux File: /home/daire/Final_Year/Project/arthur/DE10_NANO_SoC_GHRD/soc_system/synthesis/submodules/soc_system_mm_interconnect_0_rsp_demux.sv Line: 43
Info (12021): Found 1 design units, including 1 entities, in source file soc_system/synthesis/submodules/soc_system_mm_interconnect_0_cmd_mux.sv
    Info (12023): Found entity 1: soc_system_mm_interconnect_0_cmd_mux File: /home/daire/Final_Year/Project/arthur/DE10_NANO_SoC_GHRD/soc_system/synthesis/submodules/soc_system_mm_interconnect_0_cmd_mux.sv Line: 51
Info (12021): Found 1 design units, including 1 entities, in source file soc_system/synthesis/submodules/soc_system_mm_interconnect_0_cmd_demux.sv
    Info (12023): Found entity 1: soc_system_mm_interconnect_0_cmd_demux File: /home/daire/Final_Year/Project/arthur/DE10_NANO_SoC_GHRD/soc_system/synthesis/submodules/soc_system_mm_interconnect_0_cmd_demux.sv Line: 43
Info (12021): Found 1 design units, including 1 entities, in source file soc_system/synthesis/submodules/altera_merlin_burst_adapter.sv
    Info (12023): Found entity 1: altera_merlin_burst_adapter File: /home/daire/Final_Year/Project/arthur/DE10_NANO_SoC_GHRD/soc_system/synthesis/submodules/altera_merlin_burst_adapter.sv Line: 21
Info (12021): Found 1 design units, including 1 entities, in source file soc_system/synthesis/submodules/altera_merlin_burst_adapter_uncmpr.sv
    Info (12023): Found entity 1: altera_merlin_burst_adapter_uncompressed_only File: /home/daire/Final_Year/Project/arthur/DE10_NANO_SoC_GHRD/soc_system/synthesis/submodules/altera_merlin_burst_adapter_uncmpr.sv Line: 39
Info (12021): Found 5 design units, including 5 entities, in source file soc_system/synthesis/submodules/altera_merlin_burst_adapter_13_1.sv
    Info (12023): Found entity 1: altera_merlin_burst_adapter_burstwrap_increment File: /home/daire/Final_Year/Project/arthur/DE10_NANO_SoC_GHRD/soc_system/synthesis/submodules/altera_merlin_burst_adapter_13_1.sv Line: 40
    Info (12023): Found entity 2: altera_merlin_burst_adapter_adder File: /home/daire/Final_Year/Project/arthur/DE10_NANO_SoC_GHRD/soc_system/synthesis/submodules/altera_merlin_burst_adapter_13_1.sv Line: 55
    Info (12023): Found entity 3: altera_merlin_burst_adapter_subtractor File: /home/daire/Final_Year/Project/arthur/DE10_NANO_SoC_GHRD/soc_system/synthesis/submodules/altera_merlin_burst_adapter_13_1.sv Line: 77
    Info (12023): Found entity 4: altera_merlin_burst_adapter_min File: /home/daire/Final_Year/Project/arthur/DE10_NANO_SoC_GHRD/soc_system/synthesis/submodules/altera_merlin_burst_adapter_13_1.sv Line: 98
    Info (12023): Found entity 5: altera_merlin_burst_adapter_13_1 File: /home/daire/Final_Year/Project/arthur/DE10_NANO_SoC_GHRD/soc_system/synthesis/submodules/altera_merlin_burst_adapter_13_1.sv Line: 264
Info (12021): Found 1 design units, including 1 entities, in source file soc_system/synthesis/submodules/altera_merlin_burst_adapter_new.sv
    Info (12023): Found entity 1: altera_merlin_burst_adapter_new File: /home/daire/Final_Year/Project/arthur/DE10_NANO_SoC_GHRD/soc_system/synthesis/submodules/altera_merlin_burst_adapter_new.sv Line: 25
Info (12021): Found 1 design units, including 1 entities, in source file soc_system/synthesis/submodules/altera_incr_burst_converter.sv
    Info (12023): Found entity 1: altera_incr_burst_converter File: /home/daire/Final_Year/Project/arthur/DE10_NANO_SoC_GHRD/soc_system/synthesis/submodules/altera_incr_burst_converter.sv Line: 28
Info (12021): Found 1 design units, including 1 entities, in source file soc_system/synthesis/submodules/altera_wrap_burst_converter.sv
    Info (12023): Found entity 1: altera_wrap_burst_converter File: /home/daire/Final_Year/Project/arthur/DE10_NANO_SoC_GHRD/soc_system/synthesis/submodules/altera_wrap_burst_converter.sv Line: 27
Info (12021): Found 1 design units, including 1 entities, in source file soc_system/synthesis/submodules/altera_default_burst_converter.sv
    Info (12023): Found entity 1: altera_default_burst_converter File: /home/daire/Final_Year/Project/arthur/DE10_NANO_SoC_GHRD/soc_system/synthesis/submodules/altera_default_burst_converter.sv Line: 30
Info (12021): Found 1 design units, including 1 entities, in source file soc_system/synthesis/submodules/altera_avalon_st_pipeline_stage.sv
    Info (12023): Found entity 1: altera_avalon_st_pipeline_stage File: /home/daire/Final_Year/Project/arthur/DE10_NANO_SoC_GHRD/soc_system/synthesis/submodules/altera_avalon_st_pipeline_stage.sv Line: 22
Info (12021): Found 2 design units, including 2 entities, in source file soc_system/synthesis/submodules/soc_system_mm_interconnect_0_router_002.sv
    Info (12023): Found entity 1: soc_system_mm_interconnect_0_router_002_default_decode File: /home/daire/Final_Year/Project/arthur/DE10_NANO_SoC_GHRD/soc_system/synthesis/submodules/soc_system_mm_interconnect_0_router_002.sv Line: 45
    Info (12023): Found entity 2: soc_system_mm_interconnect_0_router_002 File: /home/daire/Final_Year/Project/arthur/DE10_NANO_SoC_GHRD/soc_system/synthesis/submodules/soc_system_mm_interconnect_0_router_002.sv Line: 84
Info (12021): Found 2 design units, including 2 entities, in source file soc_system/synthesis/submodules/soc_system_mm_interconnect_0_router.sv
    Info (12023): Found entity 1: soc_system_mm_interconnect_0_router_default_decode File: /home/daire/Final_Year/Project/arthur/DE10_NANO_SoC_GHRD/soc_system/synthesis/submodules/soc_system_mm_interconnect_0_router.sv Line: 45
    Info (12023): Found entity 2: soc_system_mm_interconnect_0_router File: /home/daire/Final_Year/Project/arthur/DE10_NANO_SoC_GHRD/soc_system/synthesis/submodules/soc_system_mm_interconnect_0_router.sv Line: 84
Info (12021): Found 1 design units, including 1 entities, in source file soc_system/synthesis/submodules/altera_merlin_axi_master_ni.sv
    Info (12023): Found entity 1: altera_merlin_axi_master_ni File: /home/daire/Final_Year/Project/arthur/DE10_NANO_SoC_GHRD/soc_system/synthesis/submodules/altera_merlin_axi_master_ni.sv Line: 27
Info (12021): Found 1 design units, including 1 entities, in source file soc_system/synthesis/submodules/soc_system_sysid_qsys.v
    Info (12023): Found entity 1: soc_system_sysid_qsys File: /home/daire/Final_Year/Project/arthur/DE10_NANO_SoC_GHRD/soc_system/synthesis/submodules/soc_system_sysid_qsys.v Line: 34
Info (12021): Found 2 design units, including 1 entities, in source file soc_system/synthesis/submodules/signal_exporter.vhd
    Info (12022): Found design unit 1: signal_exporter-RTL File: /home/daire/Final_Year/Project/arthur/DE10_NANO_SoC_GHRD/soc_system/synthesis/submodules/signal_exporter.vhd Line: 27
    Info (12023): Found entity 1: signal_exporter File: /home/daire/Final_Year/Project/arthur/DE10_NANO_SoC_GHRD/soc_system/synthesis/submodules/signal_exporter.vhd Line: 6
Info (12021): Found 2 design units, including 1 entities, in source file soc_system/synthesis/submodules/user_control.vhd
    Info (12022): Found design unit 1: CLK_RST_CONTROL-RTL File: /home/daire/Final_Year/Project/arthur/DE10_NANO_SoC_GHRD/soc_system/synthesis/submodules/user_control.vhd Line: 18
    Info (12023): Found entity 1: CLK_RST_CONTROL File: /home/daire/Final_Year/Project/arthur/DE10_NANO_SoC_GHRD/soc_system/synthesis/submodules/user_control.vhd Line: 5
Info (12021): Found 1 design units, including 1 entities, in source file soc_system/synthesis/submodules/altera_avalon_mm_bridge.v
    Info (12023): Found entity 1: altera_avalon_mm_bridge File: /home/daire/Final_Year/Project/arthur/DE10_NANO_SoC_GHRD/soc_system/synthesis/submodules/altera_avalon_mm_bridge.v Line: 25
Info (12021): Found 1 design units, including 1 entities, in source file soc_system/synthesis/submodules/soc_system_led_pio.v
    Info (12023): Found entity 1: soc_system_led_pio File: /home/daire/Final_Year/Project/arthur/DE10_NANO_SoC_GHRD/soc_system/synthesis/submodules/soc_system_led_pio.v Line: 21
Info (12021): Found 5 design units, including 5 entities, in source file soc_system/synthesis/submodules/soc_system_jtag_uart.v
    Info (12023): Found entity 1: soc_system_jtag_uart_sim_scfifo_w File: /home/daire/Final_Year/Project/arthur/DE10_NANO_SoC_GHRD/soc_system/synthesis/submodules/soc_system_jtag_uart.v Line: 21
    Info (12023): Found entity 2: soc_system_jtag_uart_scfifo_w File: /home/daire/Final_Year/Project/arthur/DE10_NANO_SoC_GHRD/soc_system/synthesis/submodules/soc_system_jtag_uart.v Line: 78
    Info (12023): Found entity 3: soc_system_jtag_uart_sim_scfifo_r File: /home/daire/Final_Year/Project/arthur/DE10_NANO_SoC_GHRD/soc_system/synthesis/submodules/soc_system_jtag_uart.v Line: 164
    Info (12023): Found entity 4: soc_system_jtag_uart_scfifo_r File: /home/daire/Final_Year/Project/arthur/DE10_NANO_SoC_GHRD/soc_system/synthesis/submodules/soc_system_jtag_uart.v Line: 243
    Info (12023): Found entity 5: soc_system_jtag_uart File: /home/daire/Final_Year/Project/arthur/DE10_NANO_SoC_GHRD/soc_system/synthesis/submodules/soc_system_jtag_uart.v Line: 331
Info (12021): Found 1 design units, including 1 entities, in source file soc_system/synthesis/submodules/soc_system_hps_0.v
    Info (12023): Found entity 1: soc_system_hps_0 File: /home/daire/Final_Year/Project/arthur/DE10_NANO_SoC_GHRD/soc_system/synthesis/submodules/soc_system_hps_0.v Line: 9
Info (12021): Found 1 design units, including 1 entities, in source file soc_system/synthesis/submodules/soc_system_hps_0_hps_io.v
    Info (12023): Found entity 1: soc_system_hps_0_hps_io File: /home/daire/Final_Year/Project/arthur/DE10_NANO_SoC_GHRD/soc_system/synthesis/submodules/soc_system_hps_0_hps_io.v Line: 9
Info (12021): Found 1 design units, including 1 entities, in source file soc_system/synthesis/submodules/hps_sdram.v
    Info (12023): Found entity 1: hps_sdram File: /home/daire/Final_Year/Project/arthur/DE10_NANO_SoC_GHRD/soc_system/synthesis/submodules/hps_sdram.v Line: 9
Info (12021): Found 1 design units, including 1 entities, in source file soc_system/synthesis/submodules/altdq_dqs2_acv_connect_to_hard_phy_cyclonev.sv
    Info (12023): Found entity 1: altdq_dqs2_acv_connect_to_hard_phy_cyclonev File: /home/daire/Final_Year/Project/arthur/DE10_NANO_SoC_GHRD/soc_system/synthesis/submodules/altdq_dqs2_acv_connect_to_hard_phy_cyclonev.sv Line: 19
Info (12021): Found 1 design units, including 1 entities, in source file soc_system/synthesis/submodules/altera_mem_if_dll_cyclonev.sv
    Info (12023): Found entity 1: altera_mem_if_dll_cyclonev File: /home/daire/Final_Year/Project/arthur/DE10_NANO_SoC_GHRD/soc_system/synthesis/submodules/altera_mem_if_dll_cyclonev.sv Line: 23
Info (12021): Found 1 design units, including 1 entities, in source file soc_system/synthesis/submodules/altera_mem_if_hard_memory_controller_top_cyclonev.sv
    Info (12023): Found entity 1: altera_mem_if_hard_memory_controller_top_cyclonev File: /home/daire/Final_Year/Project/arthur/DE10_NANO_SoC_GHRD/soc_system/synthesis/submodules/altera_mem_if_hard_memory_controller_top_cyclonev.sv Line: 18
Info (12021): Found 1 design units, including 1 entities, in source file soc_system/synthesis/submodules/altera_mem_if_hhp_qseq_synth_top.v
    Info (12023): Found entity 1: altera_mem_if_hhp_qseq_synth_top File: /home/daire/Final_Year/Project/arthur/DE10_NANO_SoC_GHRD/soc_system/synthesis/submodules/altera_mem_if_hhp_qseq_synth_top.v Line: 15
Info (12021): Found 1 design units, including 1 entities, in source file soc_system/synthesis/submodules/altera_mem_if_oct_cyclonev.sv
    Info (12023): Found entity 1: altera_mem_if_oct_cyclonev File: /home/daire/Final_Year/Project/arthur/DE10_NANO_SoC_GHRD/soc_system/synthesis/submodules/altera_mem_if_oct_cyclonev.sv Line: 23
Info (12021): Found 1 design units, including 1 entities, in source file soc_system/synthesis/submodules/hps_sdram_p0.sv
    Info (12023): Found entity 1: hps_sdram_p0 File: /home/daire/Final_Year/Project/arthur/DE10_NANO_SoC_GHRD/soc_system/synthesis/submodules/hps_sdram_p0.sv Line: 18
Info (12021): Found 1 design units, including 1 entities, in source file soc_system/synthesis/submodules/hps_sdram_p0_acv_hard_addr_cmd_pads.v
    Info (12023): Found entity 1: hps_sdram_p0_acv_hard_addr_cmd_pads File: /home/daire/Final_Year/Project/arthur/DE10_NANO_SoC_GHRD/soc_system/synthesis/submodules/hps_sdram_p0_acv_hard_addr_cmd_pads.v Line: 17
Info (12021): Found 1 design units, including 1 entities, in source file soc_system/synthesis/submodules/hps_sdram_p0_acv_hard_io_pads.v
    Info (12023): Found entity 1: hps_sdram_p0_acv_hard_io_pads File: /home/daire/Final_Year/Project/arthur/DE10_NANO_SoC_GHRD/soc_system/synthesis/submodules/hps_sdram_p0_acv_hard_io_pads.v Line: 17
Info (12021): Found 1 design units, including 1 entities, in source file soc_system/synthesis/submodules/hps_sdram_p0_acv_hard_memphy.v
    Info (12023): Found entity 1: hps_sdram_p0_acv_hard_memphy File: /home/daire/Final_Year/Project/arthur/DE10_NANO_SoC_GHRD/soc_system/synthesis/submodules/hps_sdram_p0_acv_hard_memphy.v Line: 21
Info (12021): Found 1 design units, including 1 entities, in source file soc_system/synthesis/submodules/hps_sdram_p0_acv_ldc.v
    Info (12023): Found entity 1: hps_sdram_p0_acv_ldc File: /home/daire/Final_Year/Project/arthur/DE10_NANO_SoC_GHRD/soc_system/synthesis/submodules/hps_sdram_p0_acv_ldc.v Line: 17
Info (12021): Found 1 design units, including 1 entities, in source file soc_system/synthesis/submodules/hps_sdram_p0_altdqdqs.v
    Info (12023): Found entity 1: hps_sdram_p0_altdqdqs File: /home/daire/Final_Year/Project/arthur/DE10_NANO_SoC_GHRD/soc_system/synthesis/submodules/hps_sdram_p0_altdqdqs.v Line: 17
Info (12021): Found 1 design units, including 1 entities, in source file soc_system/synthesis/submodules/hps_sdram_p0_clock_pair_generator.v
    Info (12023): Found entity 1: hps_sdram_p0_clock_pair_generator File: /home/daire/Final_Year/Project/arthur/DE10_NANO_SoC_GHRD/soc_system/synthesis/submodules/hps_sdram_p0_clock_pair_generator.v Line: 29
Info (12021): Found 1 design units, including 1 entities, in source file soc_system/synthesis/submodules/hps_sdram_p0_generic_ddio.v
    Info (12023): Found entity 1: hps_sdram_p0_generic_ddio File: /home/daire/Final_Year/Project/arthur/DE10_NANO_SoC_GHRD/soc_system/synthesis/submodules/hps_sdram_p0_generic_ddio.v Line: 17
Info (12021): Found 1 design units, including 1 entities, in source file soc_system/synthesis/submodules/hps_sdram_p0_iss_probe.v
    Info (12023): Found entity 1: hps_sdram_p0_iss_probe File: /home/daire/Final_Year/Project/arthur/DE10_NANO_SoC_GHRD/soc_system/synthesis/submodules/hps_sdram_p0_iss_probe.v Line: 17
Info (12021): Found 1 design units, including 1 entities, in source file soc_system/synthesis/submodules/hps_sdram_p0_phy_csr.sv
    Info (12023): Found entity 1: hps_sdram_p0_phy_csr File: /home/daire/Final_Year/Project/arthur/DE10_NANO_SoC_GHRD/soc_system/synthesis/submodules/hps_sdram_p0_phy_csr.sv Line: 31
Info (12021): Found 1 design units, including 1 entities, in source file soc_system/synthesis/submodules/hps_sdram_p0_reset.v
    Info (12023): Found entity 1: hps_sdram_p0_reset File: /home/daire/Final_Year/Project/arthur/DE10_NANO_SoC_GHRD/soc_system/synthesis/submodules/hps_sdram_p0_reset.v Line: 18
Info (12021): Found 1 design units, including 1 entities, in source file soc_system/synthesis/submodules/hps_sdram_p0_reset_sync.v
    Info (12023): Found entity 1: hps_sdram_p0_reset_sync File: /home/daire/Final_Year/Project/arthur/DE10_NANO_SoC_GHRD/soc_system/synthesis/submodules/hps_sdram_p0_reset_sync.v Line: 17
Info (12021): Found 1 design units, including 1 entities, in source file soc_system/synthesis/submodules/hps_sdram_pll.sv
    Info (12023): Found entity 1: hps_sdram_pll File: /home/daire/Final_Year/Project/arthur/DE10_NANO_SoC_GHRD/soc_system/synthesis/submodules/hps_sdram_pll.sv Line: 25
Info (12021): Found 1 design units, including 1 entities, in source file soc_system/synthesis/submodules/soc_system_hps_0_hps_io_border.sv
    Info (12023): Found entity 1: soc_system_hps_0_hps_io_border File: /home/daire/Final_Year/Project/arthur/DE10_NANO_SoC_GHRD/soc_system/synthesis/submodules/soc_system_hps_0_hps_io_border.sv Line: 14
Info (12021): Found 1 design units, including 1 entities, in source file soc_system/synthesis/submodules/soc_system_hps_0_fpga_interfaces.sv
    Info (12023): Found entity 1: soc_system_hps_0_fpga_interfaces File: /home/daire/Final_Year/Project/arthur/DE10_NANO_SoC_GHRD/soc_system/synthesis/submodules/soc_system_hps_0_fpga_interfaces.sv Line: 14
Info (12021): Found 1 design units, including 1 entities, in source file soc_system/synthesis/submodules/soc_system_f2sdram_only_master.v
    Info (12023): Found entity 1: soc_system_f2sdram_only_master File: /home/daire/Final_Year/Project/arthur/DE10_NANO_SoC_GHRD/soc_system/synthesis/submodules/soc_system_f2sdram_only_master.v Line: 9
Info (12021): Found 1 design units, including 1 entities, in source file soc_system/synthesis/submodules/soc_system_f2sdram_only_master_p2b_adapter.sv
    Info (12023): Found entity 1: soc_system_f2sdram_only_master_p2b_adapter File: /home/daire/Final_Year/Project/arthur/DE10_NANO_SoC_GHRD/soc_system/synthesis/submodules/soc_system_f2sdram_only_master_p2b_adapter.sv Line: 55
Info (12021): Found 1 design units, including 1 entities, in source file soc_system/synthesis/submodules/soc_system_f2sdram_only_master_b2p_adapter.sv
    Info (12023): Found entity 1: soc_system_f2sdram_only_master_b2p_adapter File: /home/daire/Final_Year/Project/arthur/DE10_NANO_SoC_GHRD/soc_system/synthesis/submodules/soc_system_f2sdram_only_master_b2p_adapter.sv Line: 55
Info (12021): Found 7 design units, including 7 entities, in source file soc_system/synthesis/submodules/altera_avalon_packets_to_master.v
    Info (12023): Found entity 1: altera_avalon_packets_to_master File: /home/daire/Final_Year/Project/arthur/DE10_NANO_SoC_GHRD/soc_system/synthesis/submodules/altera_avalon_packets_to_master.v Line: 22
    Info (12023): Found entity 2: packets_to_fifo File: /home/daire/Final_Year/Project/arthur/DE10_NANO_SoC_GHRD/soc_system/synthesis/submodules/altera_avalon_packets_to_master.v Line: 142
    Info (12023): Found entity 3: fifo_buffer_single_clock_fifo File: /home/daire/Final_Year/Project/arthur/DE10_NANO_SoC_GHRD/soc_system/synthesis/submodules/altera_avalon_packets_to_master.v Line: 512
    Info (12023): Found entity 4: fifo_buffer_scfifo_with_controls File: /home/daire/Final_Year/Project/arthur/DE10_NANO_SoC_GHRD/soc_system/synthesis/submodules/altera_avalon_packets_to_master.v Line: 573
    Info (12023): Found entity 5: fifo_buffer File: /home/daire/Final_Year/Project/arthur/DE10_NANO_SoC_GHRD/soc_system/synthesis/submodules/altera_avalon_packets_to_master.v Line: 627
    Info (12023): Found entity 6: fifo_to_packet File: /home/daire/Final_Year/Project/arthur/DE10_NANO_SoC_GHRD/soc_system/synthesis/submodules/altera_avalon_packets_to_master.v Line: 697
    Info (12023): Found entity 7: packets_to_master File: /home/daire/Final_Year/Project/arthur/DE10_NANO_SoC_GHRD/soc_system/synthesis/submodules/altera_avalon_packets_to_master.v Line: 851
Info (12021): Found 1 design units, including 1 entities, in source file soc_system/synthesis/submodules/altera_avalon_st_packets_to_bytes.v
    Info (12023): Found entity 1: altera_avalon_st_packets_to_bytes File: /home/daire/Final_Year/Project/arthur/DE10_NANO_SoC_GHRD/soc_system/synthesis/submodules/altera_avalon_st_packets_to_bytes.v Line: 19
Info (12021): Found 1 design units, including 1 entities, in source file soc_system/synthesis/submodules/altera_avalon_st_bytes_to_packets.v
    Info (12023): Found entity 1: altera_avalon_st_bytes_to_packets File: /home/daire/Final_Year/Project/arthur/DE10_NANO_SoC_GHRD/soc_system/synthesis/submodules/altera_avalon_st_bytes_to_packets.v Line: 19
Info (12021): Found 1 design units, including 1 entities, in source file soc_system/synthesis/submodules/soc_system_f2sdram_only_master_timing_adt.sv
    Info (12023): Found entity 1: soc_system_f2sdram_only_master_timing_adt File: /home/daire/Final_Year/Project/arthur/DE10_NANO_SoC_GHRD/soc_system/synthesis/submodules/soc_system_f2sdram_only_master_timing_adt.sv Line: 60
Info (12021): Found 1 design units, including 1 entities, in source file soc_system/synthesis/submodules/altera_avalon_st_jtag_interface.v
    Info (12023): Found entity 1: altera_avalon_st_jtag_interface File: /home/daire/Final_Year/Project/arthur/DE10_NANO_SoC_GHRD/soc_system/synthesis/submodules/altera_avalon_st_jtag_interface.v Line: 20
Info (12021): Found 3 design units, including 3 entities, in source file soc_system/synthesis/submodules/altera_jtag_dc_streaming.v
    Info (12023): Found entity 1: altera_jtag_control_signal_crosser File: /home/daire/Final_Year/Project/arthur/DE10_NANO_SoC_GHRD/soc_system/synthesis/submodules/altera_jtag_dc_streaming.v Line: 30
    Info (12023): Found entity 2: altera_jtag_src_crosser File: /home/daire/Final_Year/Project/arthur/DE10_NANO_SoC_GHRD/soc_system/synthesis/submodules/altera_jtag_dc_streaming.v Line: 72
    Info (12023): Found entity 3: altera_jtag_dc_streaming File: /home/daire/Final_Year/Project/arthur/DE10_NANO_SoC_GHRD/soc_system/synthesis/submodules/altera_jtag_dc_streaming.v Line: 135
Info (12021): Found 1 design units, including 1 entities, in source file soc_system/synthesis/submodules/altera_jtag_sld_node.v
    Info (12023): Found entity 1: altera_jtag_sld_node File: /home/daire/Final_Year/Project/arthur/DE10_NANO_SoC_GHRD/soc_system/synthesis/submodules/altera_jtag_sld_node.v Line: 17
Info (12021): Found 1 design units, including 1 entities, in source file soc_system/synthesis/submodules/altera_jtag_streaming.v
    Info (12023): Found entity 1: altera_jtag_streaming File: /home/daire/Final_Year/Project/arthur/DE10_NANO_SoC_GHRD/soc_system/synthesis/submodules/altera_jtag_streaming.v Line: 18
Info (12021): Found 1 design units, including 1 entities, in source file soc_system/synthesis/submodules/altera_avalon_st_clock_crosser.v
    Info (12023): Found entity 1: altera_avalon_st_clock_crosser File: /home/daire/Final_Year/Project/arthur/DE10_NANO_SoC_GHRD/soc_system/synthesis/submodules/altera_avalon_st_clock_crosser.v Line: 22
Info (12021): Found 1 design units, including 1 entities, in source file soc_system/synthesis/submodules/altera_std_synchronizer_nocut.v
    Info (12023): Found entity 1: altera_std_synchronizer_nocut File: /home/daire/Final_Year/Project/arthur/DE10_NANO_SoC_GHRD/soc_system/synthesis/submodules/altera_std_synchronizer_nocut.v Line: 44
Info (12021): Found 1 design units, including 1 entities, in source file soc_system/synthesis/submodules/altera_avalon_st_idle_remover.v
    Info (12023): Found entity 1: altera_avalon_st_idle_remover File: /home/daire/Final_Year/Project/arthur/DE10_NANO_SoC_GHRD/soc_system/synthesis/submodules/altera_avalon_st_idle_remover.v Line: 19
Info (12021): Found 1 design units, including 1 entities, in source file soc_system/synthesis/submodules/altera_avalon_st_idle_inserter.v
    Info (12023): Found entity 1: altera_avalon_st_idle_inserter File: /home/daire/Final_Year/Project/arthur/DE10_NANO_SoC_GHRD/soc_system/synthesis/submodules/altera_avalon_st_idle_inserter.v Line: 19
Info (12021): Found 1 design units, including 1 entities, in source file soc_system/synthesis/submodules/soc_system_dipsw_pio.v
    Info (12023): Found entity 1: soc_system_dipsw_pio File: /home/daire/Final_Year/Project/arthur/DE10_NANO_SoC_GHRD/soc_system/synthesis/submodules/soc_system_dipsw_pio.v Line: 21
Info (12021): Found 1 design units, including 1 entities, in source file soc_system/synthesis/submodules/soc_system_button_pio.v
    Info (12023): Found entity 1: soc_system_button_pio File: /home/daire/Final_Year/Project/arthur/DE10_NANO_SoC_GHRD/soc_system/synthesis/submodules/soc_system_button_pio.v Line: 21
Info (12021): Found 1 design units, including 1 entities, in source file soc_system/synthesis/submodules/interrupt_latency_counter.v
    Info (12023): Found entity 1: interrupt_latency_counter File: /home/daire/Final_Year/Project/arthur/DE10_NANO_SoC_GHRD/soc_system/synthesis/submodules/interrupt_latency_counter.v Line: 18
Info (12021): Found 1 design units, including 1 entities, in source file soc_system/synthesis/submodules/irq_detector.v
    Info (12023): Found entity 1: irq_detector File: /home/daire/Final_Year/Project/arthur/DE10_NANO_SoC_GHRD/soc_system/synthesis/submodules/irq_detector.v Line: 18
Info (12021): Found 1 design units, including 1 entities, in source file soc_system/synthesis/submodules/state_machine_counter.v
    Info (12023): Found entity 1: state_machine_counter File: /home/daire/Final_Year/Project/arthur/DE10_NANO_SoC_GHRD/soc_system/synthesis/submodules/state_machine_counter.v Line: 18
Info (12021): Found 1 design units, including 1 entities, in source file distortion.v
    Info (12023): Found entity 1: distortion File: /home/daire/Final_Year/Project/arthur/DE10_NANO_SoC_GHRD/distortion.v Line: 1
Warning (10236): Verilog HDL Implicit Net warning at altera_edge_detector.v(21): created implicit net for "reset_qual_n" File: /home/daire/Final_Year/Project/arthur/DE10_NANO_SoC_GHRD/ip/edge_detect/altera_edge_detector.v Line: 21
Warning (10236): Verilog HDL Implicit Net warning at hps_sdram_pll.sv(168): created implicit net for "pll_dr_clk" File: /home/daire/Final_Year/Project/arthur/DE10_NANO_SoC_GHRD/soc_system/synthesis/submodules/hps_sdram_pll.sv Line: 168
Info (12127): Elaborating entity "DE10_NANO_SoC_GHRD" for the top level hierarchy
Error (10203): Verilog HDL Declaration error at DE10_NANO_SoC_GHRD.v(108): vector has more than 2**20 bits File: /home/daire/Final_Year/Project/arthur/DE10_NANO_SoC_GHRD/DE10_NANO_SoC_GHRD.v Line: 108
Error (10203): Verilog HDL Declaration error at DE10_NANO_SoC_GHRD.v(109): vector has more than 2**20 bits File: /home/daire/Final_Year/Project/arthur/DE10_NANO_SoC_GHRD/DE10_NANO_SoC_GHRD.v Line: 109
Error (12153): Can't elaborate top-level user hierarchy
Info (144001): Generated suppressed messages file /home/daire/Final_Year/Project/arthur/DE10_NANO_SoC_GHRD/output_files/DE10_NANO_SoC_GHRD.map.smsg
Error: Quartus Prime Analysis & Synthesis was unsuccessful. 3 errors, 5 warnings
    Error: Peak virtual memory: 1063 megabytes
    Error: Processing ended: Sun Jan  7 12:36:20 2018
    Error: Elapsed time: 00:06:18
    Error: Total CPU time (on all processors): 00:06:47


+------------------------------------------+
; Analysis & Synthesis Suppressed Messages ;
+------------------------------------------+
The suppressed messages can be found in /home/daire/Final_Year/Project/arthur/DE10_NANO_SoC_GHRD/output_files/DE10_NANO_SoC_GHRD.map.smsg.


