# compile vhdl design source files
vhdl xil_defaultlib  "../../../../HDLmodel/singleShot.vhd"
vhdl xil_defaultlib  "../../../../HDLmodel/testbench/singleShot_TB.vhd"

# Do not sort compile order
nosort
