0 0000000000000000 0000000000 0000000000000000 0   - not writing      			Format: load, loadDat, add, datIn, wr, run # clk periods 
1 1010101010101010 0000000000 0000000000000000 0 1 - load all with AAAAh 		load, loadDat() used
0 0000000000000000 0000000011 1100110011001100 1 1 - wr C0C0h to 3   			add, datIn, wr used
0 0000000000000000 1111111111 0000001100000011 1 1 - wr 0303h to 3FFh			add, datIn, wr used
0 0000000000000000 0000000011 0000000000000000 0 1 - rd add 3					add used
0 0000000000000000 1111111111 0000000000000000 0 1 - rd add 3FFh				add used