# compile vhdl design source files
vhdl xil_defaultlib  \
"../../../../../HDLmodel/DSPCtrlr.vhd" \
"../../../../../HDLmodel/DSPFunct.vhd" \
"../../../../../../../package/DSPPackage.vhd" \
"../../../../../../../dualPortRegBlk256x16WithLoad/vhdl/HDLmodel/dualPortRegBlk1024x16WithLoad.vhd" \
"../../../../../../../singleShot/vhdl/HDLmodel/singleShot.vhd" \
"../../../../../HDLmodel/DSPTop.vhd" \

# Do not sort compile order
nosort
