Copyright 1986-2017 Xilinx, Inc. All Rights Reserved.
---------------------------------------------------------------------------------------------------------------------------------
| Tool Version : Vivado v.2017.3 (win64) Build 2018833 Wed Oct  4 19:58:22 MDT 2017
| Date         : Tue Mar 27 19:29:06 2018
| Host         : Hilary running 64-bit major release  (build 9200)
| Command      : report_drc -file system_wrapper_drc_opted.rpt -pb system_wrapper_drc_opted.pb -rpx system_wrapper_drc_opted.rpx
| Design       : system_wrapper
| Device       : xc7z020clg400-1
| Speed File   : -1
| Design State : Synthesized
---------------------------------------------------------------------------------------------------------------------------------

Report DRC

Table of Contents
-----------------
1. REPORT SUMMARY
2. REPORT DETAILS

1. REPORT SUMMARY
-----------------
            Netlist: netlist
          Floorplan: design_1
      Design limits: <entire design considered>
           Ruledeck: default
             Max violations: <unlimited>
             Violations found: 91
+--------+----------+------------------------+------------+
| Rule   | Severity | Description            | Violations |
+--------+----------+------------------------+------------+
| DPIP-1 | Warning  | Input pipelining       | 59         |
| DPOP-1 | Warning  | PREG Output pipelining | 18         |
| DPOP-2 | Warning  | MREG Output pipelining | 14         |
+--------+----------+------------------------+------------+

2. REPORT DETAILS
-----------------
DPIP-1#1 Warning
Input pipelining  
DSP system_i/DLM_0/U0/DLM_Userlogic_inst/DSPTop_i/DSPCtrlr_i/DSPFunct_i/FIRFilterTop1_i/FIRFilter_i/RESIZE0 input system_i/DLM_0/U0/DLM_Userlogic_inst/DSPTop_i/DSPCtrlr_i/DSPFunct_i/FIRFilterTop1_i/FIRFilter_i/RESIZE0/A[29:0] is not pipelined. Pipelining DSP48 input will improve performance.
Related violations: <none>

DPIP-1#2 Warning
Input pipelining  
DSP system_i/DLM_0/U0/DLM_Userlogic_inst/DSPTop_i/DSPCtrlr_i/DSPFunct_i/FIRFilterTop1_i/FIRFilter_i/RESIZE0 input system_i/DLM_0/U0/DLM_Userlogic_inst/DSPTop_i/DSPCtrlr_i/DSPFunct_i/FIRFilterTop1_i/FIRFilter_i/RESIZE0/B[17:0] is not pipelined. Pipelining DSP48 input will improve performance.
Related violations: <none>

DPIP-1#3 Warning
Input pipelining  
DSP system_i/DLM_0/U0/DLM_Userlogic_inst/DSPTop_i/DSPCtrlr_i/DSPFunct_i/FIRFilterTop1_i/FIRFilter_i/RESIZE0__0 input system_i/DLM_0/U0/DLM_Userlogic_inst/DSPTop_i/DSPCtrlr_i/DSPFunct_i/FIRFilterTop1_i/FIRFilter_i/RESIZE0__0/A[29:0] is not pipelined. Pipelining DSP48 input will improve performance.
Related violations: <none>

DPIP-1#4 Warning
Input pipelining  
DSP system_i/DLM_0/U0/DLM_Userlogic_inst/DSPTop_i/DSPCtrlr_i/DSPFunct_i/FIRFilterTop1_i/FIRFilter_i/RESIZE0__0 input system_i/DLM_0/U0/DLM_Userlogic_inst/DSPTop_i/DSPCtrlr_i/DSPFunct_i/FIRFilterTop1_i/FIRFilter_i/RESIZE0__0/B[17:0] is not pipelined. Pipelining DSP48 input will improve performance.
Related violations: <none>

DPIP-1#5 Warning
Input pipelining  
DSP system_i/DLM_0/U0/DLM_Userlogic_inst/DSPTop_i/DSPCtrlr_i/DSPFunct_i/FIRFilterTop1_i/FIRFilter_i/RESIZE0__1 input system_i/DLM_0/U0/DLM_Userlogic_inst/DSPTop_i/DSPCtrlr_i/DSPFunct_i/FIRFilterTop1_i/FIRFilter_i/RESIZE0__1/A[29:0] is not pipelined. Pipelining DSP48 input will improve performance.
Related violations: <none>

DPIP-1#6 Warning
Input pipelining  
DSP system_i/DLM_0/U0/DLM_Userlogic_inst/DSPTop_i/DSPCtrlr_i/DSPFunct_i/FIRFilterTop1_i/FIRFilter_i/RESIZE0__1 input system_i/DLM_0/U0/DLM_Userlogic_inst/DSPTop_i/DSPCtrlr_i/DSPFunct_i/FIRFilterTop1_i/FIRFilter_i/RESIZE0__1/B[17:0] is not pipelined. Pipelining DSP48 input will improve performance.
Related violations: <none>

DPIP-1#7 Warning
Input pipelining  
DSP system_i/DLM_0/U0/DLM_Userlogic_inst/DSPTop_i/DSPCtrlr_i/DSPFunct_i/FIRFilterTop1_i/FIRFilter_i/RESIZE0__2 input system_i/DLM_0/U0/DLM_Userlogic_inst/DSPTop_i/DSPCtrlr_i/DSPFunct_i/FIRFilterTop1_i/FIRFilter_i/RESIZE0__2/A[29:0] is not pipelined. Pipelining DSP48 input will improve performance.
Related violations: <none>

DPIP-1#8 Warning
Input pipelining  
DSP system_i/DLM_0/U0/DLM_Userlogic_inst/DSPTop_i/DSPCtrlr_i/DSPFunct_i/FIRFilterTop1_i/FIRFilter_i/RESIZE0__2 input system_i/DLM_0/U0/DLM_Userlogic_inst/DSPTop_i/DSPCtrlr_i/DSPFunct_i/FIRFilterTop1_i/FIRFilter_i/RESIZE0__2/B[17:0] is not pipelined. Pipelining DSP48 input will improve performance.
Related violations: <none>

DPIP-1#9 Warning
Input pipelining  
DSP system_i/DLM_0/U0/DLM_Userlogic_inst/DSPTop_i/DSPCtrlr_i/DSPFunct_i/FIRFilterTop1_i/FIRFilter_i/RESIZE0__3 input system_i/DLM_0/U0/DLM_Userlogic_inst/DSPTop_i/DSPCtrlr_i/DSPFunct_i/FIRFilterTop1_i/FIRFilter_i/RESIZE0__3/A[29:0] is not pipelined. Pipelining DSP48 input will improve performance.
Related violations: <none>

DPIP-1#10 Warning
Input pipelining  
DSP system_i/DLM_0/U0/DLM_Userlogic_inst/DSPTop_i/DSPCtrlr_i/DSPFunct_i/FIRFilterTop1_i/FIRFilter_i/RESIZE0__3 input system_i/DLM_0/U0/DLM_Userlogic_inst/DSPTop_i/DSPCtrlr_i/DSPFunct_i/FIRFilterTop1_i/FIRFilter_i/RESIZE0__3/B[17:0] is not pipelined. Pipelining DSP48 input will improve performance.
Related violations: <none>

DPIP-1#11 Warning
Input pipelining  
DSP system_i/DLM_0/U0/DLM_Userlogic_inst/DSPTop_i/DSPCtrlr_i/DSPFunct_i/FIRFilterTop1_i/FIRFilter_i/RESIZE0__4 input system_i/DLM_0/U0/DLM_Userlogic_inst/DSPTop_i/DSPCtrlr_i/DSPFunct_i/FIRFilterTop1_i/FIRFilter_i/RESIZE0__4/A[29:0] is not pipelined. Pipelining DSP48 input will improve performance.
Related violations: <none>

DPIP-1#12 Warning
Input pipelining  
DSP system_i/DLM_0/U0/DLM_Userlogic_inst/DSPTop_i/DSPCtrlr_i/DSPFunct_i/FIRFilterTop1_i/FIRFilter_i/RESIZE0__4 input system_i/DLM_0/U0/DLM_Userlogic_inst/DSPTop_i/DSPCtrlr_i/DSPFunct_i/FIRFilterTop1_i/FIRFilter_i/RESIZE0__4/B[17:0] is not pipelined. Pipelining DSP48 input will improve performance.
Related violations: <none>

DPIP-1#13 Warning
Input pipelining  
DSP system_i/DLM_0/U0/DLM_Userlogic_inst/DSPTop_i/DSPCtrlr_i/DSPFunct_i/FIRFilterTop1_i/FIRFilter_i/RESIZE0__5 input system_i/DLM_0/U0/DLM_Userlogic_inst/DSPTop_i/DSPCtrlr_i/DSPFunct_i/FIRFilterTop1_i/FIRFilter_i/RESIZE0__5/A[29:0] is not pipelined. Pipelining DSP48 input will improve performance.
Related violations: <none>

DPIP-1#14 Warning
Input pipelining  
DSP system_i/DLM_0/U0/DLM_Userlogic_inst/DSPTop_i/DSPCtrlr_i/DSPFunct_i/FIRFilterTop1_i/FIRFilter_i/RESIZE0__5 input system_i/DLM_0/U0/DLM_Userlogic_inst/DSPTop_i/DSPCtrlr_i/DSPFunct_i/FIRFilterTop1_i/FIRFilter_i/RESIZE0__5/B[17:0] is not pipelined. Pipelining DSP48 input will improve performance.
Related violations: <none>

DPIP-1#15 Warning
Input pipelining  
DSP system_i/DLM_0/U0/DLM_Userlogic_inst/DSPTop_i/DSPCtrlr_i/DSPFunct_i/FIRFilterTop1_i/FIRFilter_i/RESIZE0__6 input system_i/DLM_0/U0/DLM_Userlogic_inst/DSPTop_i/DSPCtrlr_i/DSPFunct_i/FIRFilterTop1_i/FIRFilter_i/RESIZE0__6/A[29:0] is not pipelined. Pipelining DSP48 input will improve performance.
Related violations: <none>

DPIP-1#16 Warning
Input pipelining  
DSP system_i/DLM_0/U0/DLM_Userlogic_inst/DSPTop_i/DSPCtrlr_i/DSPFunct_i/FIRFilterTop1_i/FIRFilter_i/RESIZE0__6 input system_i/DLM_0/U0/DLM_Userlogic_inst/DSPTop_i/DSPCtrlr_i/DSPFunct_i/FIRFilterTop1_i/FIRFilter_i/RESIZE0__6/B[17:0] is not pipelined. Pipelining DSP48 input will improve performance.
Related violations: <none>

DPIP-1#17 Warning
Input pipelining  
DSP system_i/DLM_0/U0/DLM_Userlogic_inst/DSPTop_i/DSPCtrlr_i/DSPFunct_i/FIRFilterTop1_i/FIRFilter_i/addLvl0[0] input system_i/DLM_0/U0/DLM_Userlogic_inst/DSPTop_i/DSPCtrlr_i/DSPFunct_i/FIRFilterTop1_i/FIRFilter_i/addLvl0[0]/A[29:0] is not pipelined. Pipelining DSP48 input will improve performance.
Related violations: <none>

DPIP-1#18 Warning
Input pipelining  
DSP system_i/DLM_0/U0/DLM_Userlogic_inst/DSPTop_i/DSPCtrlr_i/DSPFunct_i/FIRFilterTop1_i/FIRFilter_i/addLvl0[0] input system_i/DLM_0/U0/DLM_Userlogic_inst/DSPTop_i/DSPCtrlr_i/DSPFunct_i/FIRFilterTop1_i/FIRFilter_i/addLvl0[0]/B[17:0] is not pipelined. Pipelining DSP48 input will improve performance.
Related violations: <none>

DPIP-1#19 Warning
Input pipelining  
DSP system_i/DLM_0/U0/DLM_Userlogic_inst/DSPTop_i/DSPCtrlr_i/DSPFunct_i/FIRFilterTop1_i/FIRFilter_i/addLvl0[0] input system_i/DLM_0/U0/DLM_Userlogic_inst/DSPTop_i/DSPCtrlr_i/DSPFunct_i/FIRFilterTop1_i/FIRFilter_i/addLvl0[0]/C[47:0] is not pipelined. Pipelining DSP48 input will improve performance.
Related violations: <none>

DPIP-1#20 Warning
Input pipelining  
DSP system_i/DLM_0/U0/DLM_Userlogic_inst/DSPTop_i/DSPCtrlr_i/DSPFunct_i/FIRFilterTop1_i/FIRFilter_i/addLvl0[1] input system_i/DLM_0/U0/DLM_Userlogic_inst/DSPTop_i/DSPCtrlr_i/DSPFunct_i/FIRFilterTop1_i/FIRFilter_i/addLvl0[1]/A[29:0] is not pipelined. Pipelining DSP48 input will improve performance.
Related violations: <none>

DPIP-1#21 Warning
Input pipelining  
DSP system_i/DLM_0/U0/DLM_Userlogic_inst/DSPTop_i/DSPCtrlr_i/DSPFunct_i/FIRFilterTop1_i/FIRFilter_i/addLvl0[1] input system_i/DLM_0/U0/DLM_Userlogic_inst/DSPTop_i/DSPCtrlr_i/DSPFunct_i/FIRFilterTop1_i/FIRFilter_i/addLvl0[1]/B[17:0] is not pipelined. Pipelining DSP48 input will improve performance.
Related violations: <none>

DPIP-1#22 Warning
Input pipelining  
DSP system_i/DLM_0/U0/DLM_Userlogic_inst/DSPTop_i/DSPCtrlr_i/DSPFunct_i/FIRFilterTop1_i/FIRFilter_i/addLvl0[1] input system_i/DLM_0/U0/DLM_Userlogic_inst/DSPTop_i/DSPCtrlr_i/DSPFunct_i/FIRFilterTop1_i/FIRFilter_i/addLvl0[1]/C[47:0] is not pipelined. Pipelining DSP48 input will improve performance.
Related violations: <none>

DPIP-1#23 Warning
Input pipelining  
DSP system_i/DLM_0/U0/DLM_Userlogic_inst/DSPTop_i/DSPCtrlr_i/DSPFunct_i/FIRFilterTop1_i/FIRFilter_i/addLvl0[2] input system_i/DLM_0/U0/DLM_Userlogic_inst/DSPTop_i/DSPCtrlr_i/DSPFunct_i/FIRFilterTop1_i/FIRFilter_i/addLvl0[2]/A[29:0] is not pipelined. Pipelining DSP48 input will improve performance.
Related violations: <none>

DPIP-1#24 Warning
Input pipelining  
DSP system_i/DLM_0/U0/DLM_Userlogic_inst/DSPTop_i/DSPCtrlr_i/DSPFunct_i/FIRFilterTop1_i/FIRFilter_i/addLvl0[2] input system_i/DLM_0/U0/DLM_Userlogic_inst/DSPTop_i/DSPCtrlr_i/DSPFunct_i/FIRFilterTop1_i/FIRFilter_i/addLvl0[2]/B[17:0] is not pipelined. Pipelining DSP48 input will improve performance.
Related violations: <none>

DPIP-1#25 Warning
Input pipelining  
DSP system_i/DLM_0/U0/DLM_Userlogic_inst/DSPTop_i/DSPCtrlr_i/DSPFunct_i/FIRFilterTop1_i/FIRFilter_i/addLvl0[2] input system_i/DLM_0/U0/DLM_Userlogic_inst/DSPTop_i/DSPCtrlr_i/DSPFunct_i/FIRFilterTop1_i/FIRFilter_i/addLvl0[2]/C[47:0] is not pipelined. Pipelining DSP48 input will improve performance.
Related violations: <none>

DPIP-1#26 Warning
Input pipelining  
DSP system_i/DLM_0/U0/DLM_Userlogic_inst/DSPTop_i/DSPCtrlr_i/DSPFunct_i/FIRFilterTop1_i/FIRFilter_i/addLvl0[3] input system_i/DLM_0/U0/DLM_Userlogic_inst/DSPTop_i/DSPCtrlr_i/DSPFunct_i/FIRFilterTop1_i/FIRFilter_i/addLvl0[3]/A[29:0] is not pipelined. Pipelining DSP48 input will improve performance.
Related violations: <none>

DPIP-1#27 Warning
Input pipelining  
DSP system_i/DLM_0/U0/DLM_Userlogic_inst/DSPTop_i/DSPCtrlr_i/DSPFunct_i/FIRFilterTop1_i/FIRFilter_i/addLvl0[3] input system_i/DLM_0/U0/DLM_Userlogic_inst/DSPTop_i/DSPCtrlr_i/DSPFunct_i/FIRFilterTop1_i/FIRFilter_i/addLvl0[3]/B[17:0] is not pipelined. Pipelining DSP48 input will improve performance.
Related violations: <none>

DPIP-1#28 Warning
Input pipelining  
DSP system_i/DLM_0/U0/DLM_Userlogic_inst/DSPTop_i/DSPCtrlr_i/DSPFunct_i/FIRFilterTop1_i/FIRFilter_i/addLvl0[3] input system_i/DLM_0/U0/DLM_Userlogic_inst/DSPTop_i/DSPCtrlr_i/DSPFunct_i/FIRFilterTop1_i/FIRFilter_i/addLvl0[3]/C[47:0] is not pipelined. Pipelining DSP48 input will improve performance.
Related violations: <none>

DPIP-1#29 Warning
Input pipelining  
DSP system_i/DLM_0/U0/DLM_Userlogic_inst/DSPTop_i/DSPCtrlr_i/DSPFunct_i/FIRFilterTop1_i/FIRFilter_i/addLvl0[4] input system_i/DLM_0/U0/DLM_Userlogic_inst/DSPTop_i/DSPCtrlr_i/DSPFunct_i/FIRFilterTop1_i/FIRFilter_i/addLvl0[4]/A[29:0] is not pipelined. Pipelining DSP48 input will improve performance.
Related violations: <none>

DPIP-1#30 Warning
Input pipelining  
DSP system_i/DLM_0/U0/DLM_Userlogic_inst/DSPTop_i/DSPCtrlr_i/DSPFunct_i/FIRFilterTop1_i/FIRFilter_i/addLvl0[4] input system_i/DLM_0/U0/DLM_Userlogic_inst/DSPTop_i/DSPCtrlr_i/DSPFunct_i/FIRFilterTop1_i/FIRFilter_i/addLvl0[4]/B[17:0] is not pipelined. Pipelining DSP48 input will improve performance.
Related violations: <none>

DPIP-1#31 Warning
Input pipelining  
DSP system_i/DLM_0/U0/DLM_Userlogic_inst/DSPTop_i/DSPCtrlr_i/DSPFunct_i/FIRFilterTop1_i/FIRFilter_i/addLvl0[4] input system_i/DLM_0/U0/DLM_Userlogic_inst/DSPTop_i/DSPCtrlr_i/DSPFunct_i/FIRFilterTop1_i/FIRFilter_i/addLvl0[4]/C[47:0] is not pipelined. Pipelining DSP48 input will improve performance.
Related violations: <none>

DPIP-1#32 Warning
Input pipelining  
DSP system_i/DLM_0/U0/DLM_Userlogic_inst/DSPTop_i/DSPCtrlr_i/DSPFunct_i/FIRFilterTop1_i/FIRFilter_i/addLvl0[5] input system_i/DLM_0/U0/DLM_Userlogic_inst/DSPTop_i/DSPCtrlr_i/DSPFunct_i/FIRFilterTop1_i/FIRFilter_i/addLvl0[5]/A[29:0] is not pipelined. Pipelining DSP48 input will improve performance.
Related violations: <none>

DPIP-1#33 Warning
Input pipelining  
DSP system_i/DLM_0/U0/DLM_Userlogic_inst/DSPTop_i/DSPCtrlr_i/DSPFunct_i/FIRFilterTop1_i/FIRFilter_i/addLvl0[5] input system_i/DLM_0/U0/DLM_Userlogic_inst/DSPTop_i/DSPCtrlr_i/DSPFunct_i/FIRFilterTop1_i/FIRFilter_i/addLvl0[5]/B[17:0] is not pipelined. Pipelining DSP48 input will improve performance.
Related violations: <none>

DPIP-1#34 Warning
Input pipelining  
DSP system_i/DLM_0/U0/DLM_Userlogic_inst/DSPTop_i/DSPCtrlr_i/DSPFunct_i/FIRFilterTop1_i/FIRFilter_i/addLvl0[5] input system_i/DLM_0/U0/DLM_Userlogic_inst/DSPTop_i/DSPCtrlr_i/DSPFunct_i/FIRFilterTop1_i/FIRFilter_i/addLvl0[5]/C[47:0] is not pipelined. Pipelining DSP48 input will improve performance.
Related violations: <none>

DPIP-1#35 Warning
Input pipelining  
DSP system_i/DLM_0/U0/DLM_Userlogic_inst/DSPTop_i/DSPCtrlr_i/DSPFunct_i/FIRFilterTop1_i/FIRFilter_i/addLvl0[6] input system_i/DLM_0/U0/DLM_Userlogic_inst/DSPTop_i/DSPCtrlr_i/DSPFunct_i/FIRFilterTop1_i/FIRFilter_i/addLvl0[6]/A[29:0] is not pipelined. Pipelining DSP48 input will improve performance.
Related violations: <none>

DPIP-1#36 Warning
Input pipelining  
DSP system_i/DLM_0/U0/DLM_Userlogic_inst/DSPTop_i/DSPCtrlr_i/DSPFunct_i/FIRFilterTop1_i/FIRFilter_i/addLvl0[6] input system_i/DLM_0/U0/DLM_Userlogic_inst/DSPTop_i/DSPCtrlr_i/DSPFunct_i/FIRFilterTop1_i/FIRFilter_i/addLvl0[6]/B[17:0] is not pipelined. Pipelining DSP48 input will improve performance.
Related violations: <none>

DPIP-1#37 Warning
Input pipelining  
DSP system_i/DLM_0/U0/DLM_Userlogic_inst/DSPTop_i/DSPCtrlr_i/DSPFunct_i/FIRFilterTop1_i/FIRFilter_i/addLvl0[6] input system_i/DLM_0/U0/DLM_Userlogic_inst/DSPTop_i/DSPCtrlr_i/DSPFunct_i/FIRFilterTop1_i/FIRFilter_i/addLvl0[6]/C[47:0] is not pipelined. Pipelining DSP48 input will improve performance.
Related violations: <none>

DPIP-1#38 Warning
Input pipelining  
DSP system_i/DLM_0/U0/DLM_Userlogic_inst/DSPTop_i/DSPCtrlr_i/DSPFunct_i/FIRFilterTop1_i/FIRFilter_i/addLvl0[7] input system_i/DLM_0/U0/DLM_Userlogic_inst/DSPTop_i/DSPCtrlr_i/DSPFunct_i/FIRFilterTop1_i/FIRFilter_i/addLvl0[7]/A[29:0] is not pipelined. Pipelining DSP48 input will improve performance.
Related violations: <none>

DPIP-1#39 Warning
Input pipelining  
DSP system_i/DLM_0/U0/DLM_Userlogic_inst/DSPTop_i/DSPCtrlr_i/DSPFunct_i/FIRFilterTop1_i/FIRFilter_i/addLvl0[7] input system_i/DLM_0/U0/DLM_Userlogic_inst/DSPTop_i/DSPCtrlr_i/DSPFunct_i/FIRFilterTop1_i/FIRFilter_i/addLvl0[7]/B[17:0] is not pipelined. Pipelining DSP48 input will improve performance.
Related violations: <none>

DPIP-1#40 Warning
Input pipelining  
DSP system_i/DLM_0/U0/DLM_Userlogic_inst/DSPTop_i/DSPCtrlr_i/DSPFunct_i/FIRFilterTop1_i/FIRFilter_i/addLvl0[7] input system_i/DLM_0/U0/DLM_Userlogic_inst/DSPTop_i/DSPCtrlr_i/DSPFunct_i/FIRFilterTop1_i/FIRFilter_i/addLvl0[7]/C[47:0] is not pipelined. Pipelining DSP48 input will improve performance.
Related violations: <none>

DPIP-1#41 Warning
Input pipelining  
DSP system_i/DLM_0/U0/DLM_Userlogic_inst/DSPTop_i/DSPCtrlr_i/DSPFunct_i/FIRFilterTop1_i/FIRFilter_i/addLvl1[0] input system_i/DLM_0/U0/DLM_Userlogic_inst/DSPTop_i/DSPCtrlr_i/DSPFunct_i/FIRFilterTop1_i/FIRFilter_i/addLvl1[0]/A[29:0] is not pipelined. Pipelining DSP48 input will improve performance.
Related violations: <none>

DPIP-1#42 Warning
Input pipelining  
DSP system_i/DLM_0/U0/DLM_Userlogic_inst/DSPTop_i/DSPCtrlr_i/DSPFunct_i/FIRFilterTop1_i/FIRFilter_i/addLvl1[0] input system_i/DLM_0/U0/DLM_Userlogic_inst/DSPTop_i/DSPCtrlr_i/DSPFunct_i/FIRFilterTop1_i/FIRFilter_i/addLvl1[0]/B[17:0] is not pipelined. Pipelining DSP48 input will improve performance.
Related violations: <none>

DPIP-1#43 Warning
Input pipelining  
DSP system_i/DLM_0/U0/DLM_Userlogic_inst/DSPTop_i/DSPCtrlr_i/DSPFunct_i/FIRFilterTop1_i/FIRFilter_i/addLvl1[1] input system_i/DLM_0/U0/DLM_Userlogic_inst/DSPTop_i/DSPCtrlr_i/DSPFunct_i/FIRFilterTop1_i/FIRFilter_i/addLvl1[1]/A[29:0] is not pipelined. Pipelining DSP48 input will improve performance.
Related violations: <none>

DPIP-1#44 Warning
Input pipelining  
DSP system_i/DLM_0/U0/DLM_Userlogic_inst/DSPTop_i/DSPCtrlr_i/DSPFunct_i/FIRFilterTop1_i/FIRFilter_i/addLvl1[1] input system_i/DLM_0/U0/DLM_Userlogic_inst/DSPTop_i/DSPCtrlr_i/DSPFunct_i/FIRFilterTop1_i/FIRFilter_i/addLvl1[1]/B[17:0] is not pipelined. Pipelining DSP48 input will improve performance.
Related violations: <none>

DPIP-1#45 Warning
Input pipelining  
DSP system_i/DLM_0/U0/DLM_Userlogic_inst/DSPTop_i/DSPCtrlr_i/DSPFunct_i/FIRFilterTop1_i/FIRFilter_i/addLvl1[2] input system_i/DLM_0/U0/DLM_Userlogic_inst/DSPTop_i/DSPCtrlr_i/DSPFunct_i/FIRFilterTop1_i/FIRFilter_i/addLvl1[2]/A[29:0] is not pipelined. Pipelining DSP48 input will improve performance.
Related violations: <none>

DPIP-1#46 Warning
Input pipelining  
DSP system_i/DLM_0/U0/DLM_Userlogic_inst/DSPTop_i/DSPCtrlr_i/DSPFunct_i/FIRFilterTop1_i/FIRFilter_i/addLvl1[2] input system_i/DLM_0/U0/DLM_Userlogic_inst/DSPTop_i/DSPCtrlr_i/DSPFunct_i/FIRFilterTop1_i/FIRFilter_i/addLvl1[2]/B[17:0] is not pipelined. Pipelining DSP48 input will improve performance.
Related violations: <none>

DPIP-1#47 Warning
Input pipelining  
DSP system_i/DLM_0/U0/DLM_Userlogic_inst/DSPTop_i/DSPCtrlr_i/DSPFunct_i/FIRFilterTop1_i/FIRFilter_i/addLvl1[3] input system_i/DLM_0/U0/DLM_Userlogic_inst/DSPTop_i/DSPCtrlr_i/DSPFunct_i/FIRFilterTop1_i/FIRFilter_i/addLvl1[3]/A[29:0] is not pipelined. Pipelining DSP48 input will improve performance.
Related violations: <none>

DPIP-1#48 Warning
Input pipelining  
DSP system_i/DLM_0/U0/DLM_Userlogic_inst/DSPTop_i/DSPCtrlr_i/DSPFunct_i/FIRFilterTop1_i/FIRFilter_i/addLvl1[3] input system_i/DLM_0/U0/DLM_Userlogic_inst/DSPTop_i/DSPCtrlr_i/DSPFunct_i/FIRFilterTop1_i/FIRFilter_i/addLvl1[3]/B[17:0] is not pipelined. Pipelining DSP48 input will improve performance.
Related violations: <none>

DPIP-1#49 Warning
Input pipelining  
DSP system_i/DLM_0/U0/DLM_Userlogic_inst/DSPTop_i/DSPCtrlr_i/DSPFunct_i/FIRFilterTop1_i/FIRFilter_i/addLvl2[0] input system_i/DLM_0/U0/DLM_Userlogic_inst/DSPTop_i/DSPCtrlr_i/DSPFunct_i/FIRFilterTop1_i/FIRFilter_i/addLvl2[0]/A[29:0] is not pipelined. Pipelining DSP48 input will improve performance.
Related violations: <none>

DPIP-1#50 Warning
Input pipelining  
DSP system_i/DLM_0/U0/DLM_Userlogic_inst/DSPTop_i/DSPCtrlr_i/DSPFunct_i/FIRFilterTop1_i/FIRFilter_i/addLvl2[0] input system_i/DLM_0/U0/DLM_Userlogic_inst/DSPTop_i/DSPCtrlr_i/DSPFunct_i/FIRFilterTop1_i/FIRFilter_i/addLvl2[0]/B[17:0] is not pipelined. Pipelining DSP48 input will improve performance.
Related violations: <none>

DPIP-1#51 Warning
Input pipelining  
DSP system_i/DLM_0/U0/DLM_Userlogic_inst/DSPTop_i/DSPCtrlr_i/DSPFunct_i/FIRFilterTop1_i/FIRFilter_i/addLvl2[1] input system_i/DLM_0/U0/DLM_Userlogic_inst/DSPTop_i/DSPCtrlr_i/DSPFunct_i/FIRFilterTop1_i/FIRFilter_i/addLvl2[1]/A[29:0] is not pipelined. Pipelining DSP48 input will improve performance.
Related violations: <none>

DPIP-1#52 Warning
Input pipelining  
DSP system_i/DLM_0/U0/DLM_Userlogic_inst/DSPTop_i/DSPCtrlr_i/DSPFunct_i/FIRFilterTop1_i/FIRFilter_i/addLvl2[1] input system_i/DLM_0/U0/DLM_Userlogic_inst/DSPTop_i/DSPCtrlr_i/DSPFunct_i/FIRFilterTop1_i/FIRFilter_i/addLvl2[1]/B[17:0] is not pipelined. Pipelining DSP48 input will improve performance.
Related violations: <none>

DPIP-1#53 Warning
Input pipelining  
DSP system_i/DLM_0/U0/DLM_Userlogic_inst/DSPTop_i/DSPCtrlr_i/DSPFunct_i/FIRFilterTop1_i/FIRFilter_i/addLvl3 input system_i/DLM_0/U0/DLM_Userlogic_inst/DSPTop_i/DSPCtrlr_i/DSPFunct_i/FIRFilterTop1_i/FIRFilter_i/addLvl3/A[29:0] is not pipelined. Pipelining DSP48 input will improve performance.
Related violations: <none>

DPIP-1#54 Warning
Input pipelining  
DSP system_i/DLM_0/U0/DLM_Userlogic_inst/DSPTop_i/DSPCtrlr_i/DSPFunct_i/FIRFilterTop1_i/FIRFilter_i/addLvl3 input system_i/DLM_0/U0/DLM_Userlogic_inst/DSPTop_i/DSPCtrlr_i/DSPFunct_i/FIRFilterTop1_i/FIRFilter_i/addLvl3/B[17:0] is not pipelined. Pipelining DSP48 input will improve performance.
Related violations: <none>

DPIP-1#55 Warning
Input pipelining  
DSP system_i/DLM_0/U0/DLM_Userlogic_inst/DSPTop_i/DSPCtrlr_i/DSPFunct_i/Tremelo0_i/u_MATLAB_Function/q3 input system_i/DLM_0/U0/DLM_Userlogic_inst/DSPTop_i/DSPCtrlr_i/DSPFunct_i/Tremelo0_i/u_MATLAB_Function/q3/A[29:0] is not pipelined. Pipelining DSP48 input will improve performance.
Related violations: <none>

DPIP-1#56 Warning
Input pipelining  
DSP system_i/DLM_0/U0/DLM_Userlogic_inst/DSPTop_i/DSPCtrlr_i/DSPFunct_i/Tremelo0_i/u_MATLAB_Function/q3 input system_i/DLM_0/U0/DLM_Userlogic_inst/DSPTop_i/DSPCtrlr_i/DSPFunct_i/Tremelo0_i/u_MATLAB_Function/q3/B[17:0] is not pipelined. Pipelining DSP48 input will improve performance.
Related violations: <none>

DPIP-1#57 Warning
Input pipelining  
DSP system_i/DLM_0/U0/DLM_Userlogic_inst/DSPTop_i/DSPCtrlr_i/DSPFunct_i/Tremelo0_i/u_MATLAB_Function/q3 input system_i/DLM_0/U0/DLM_Userlogic_inst/DSPTop_i/DSPCtrlr_i/DSPFunct_i/Tremelo0_i/u_MATLAB_Function/q3/C[47:0] is not pipelined. Pipelining DSP48 input will improve performance.
Related violations: <none>

DPIP-1#58 Warning
Input pipelining  
DSP system_i/DLM_0/U0/DLM_Userlogic_inst/DSPTop_i/DSPCtrlr_i/DSPFunct_i/Tremelo0_i/u_MATLAB_Function/tremelo_tmp3 input system_i/DLM_0/U0/DLM_Userlogic_inst/DSPTop_i/DSPCtrlr_i/DSPFunct_i/Tremelo0_i/u_MATLAB_Function/tremelo_tmp3/A[29:0] is not pipelined. Pipelining DSP48 input will improve performance.
Related violations: <none>

DPIP-1#59 Warning
Input pipelining  
DSP system_i/DLM_0/U0/DLM_Userlogic_inst/DSPTop_i/DSPCtrlr_i/DSPFunct_i/Tremelo0_i/u_MATLAB_Function/tremelo_tmp3 input system_i/DLM_0/U0/DLM_Userlogic_inst/DSPTop_i/DSPCtrlr_i/DSPFunct_i/Tremelo0_i/u_MATLAB_Function/tremelo_tmp3/B[17:0] is not pipelined. Pipelining DSP48 input will improve performance.
Related violations: <none>

DPOP-1#1 Warning
PREG Output pipelining  
DSP system_i/DLM_0/U0/DLM_Userlogic_inst/DSPTop_i/DSPCtrlr_i/DSPFunct_i/FIRFilterTop1_i/FIRFilter_i/RESIZE0 output system_i/DLM_0/U0/DLM_Userlogic_inst/DSPTop_i/DSPCtrlr_i/DSPFunct_i/FIRFilterTop1_i/FIRFilter_i/RESIZE0/P[47:0] is not pipelined (PREG=0). Pipelining the DSP48 output will improve performance and often saves power so it is suggested whenever possible to fully pipeline this function.  If this DSP48 function was inferred, it is suggested to describe an additional register stage after this function.  If the DSP48 was instantiated in the design, it is suggested to set the PREG attribute to 1.
Related violations: <none>

DPOP-1#2 Warning
PREG Output pipelining  
DSP system_i/DLM_0/U0/DLM_Userlogic_inst/DSPTop_i/DSPCtrlr_i/DSPFunct_i/FIRFilterTop1_i/FIRFilter_i/RESIZE0__0 output system_i/DLM_0/U0/DLM_Userlogic_inst/DSPTop_i/DSPCtrlr_i/DSPFunct_i/FIRFilterTop1_i/FIRFilter_i/RESIZE0__0/P[47:0] is not pipelined (PREG=0). Pipelining the DSP48 output will improve performance and often saves power so it is suggested whenever possible to fully pipeline this function.  If this DSP48 function was inferred, it is suggested to describe an additional register stage after this function.  If the DSP48 was instantiated in the design, it is suggested to set the PREG attribute to 1.
Related violations: <none>

DPOP-1#3 Warning
PREG Output pipelining  
DSP system_i/DLM_0/U0/DLM_Userlogic_inst/DSPTop_i/DSPCtrlr_i/DSPFunct_i/FIRFilterTop1_i/FIRFilter_i/RESIZE0__1 output system_i/DLM_0/U0/DLM_Userlogic_inst/DSPTop_i/DSPCtrlr_i/DSPFunct_i/FIRFilterTop1_i/FIRFilter_i/RESIZE0__1/P[47:0] is not pipelined (PREG=0). Pipelining the DSP48 output will improve performance and often saves power so it is suggested whenever possible to fully pipeline this function.  If this DSP48 function was inferred, it is suggested to describe an additional register stage after this function.  If the DSP48 was instantiated in the design, it is suggested to set the PREG attribute to 1.
Related violations: <none>

DPOP-1#4 Warning
PREG Output pipelining  
DSP system_i/DLM_0/U0/DLM_Userlogic_inst/DSPTop_i/DSPCtrlr_i/DSPFunct_i/FIRFilterTop1_i/FIRFilter_i/RESIZE0__2 output system_i/DLM_0/U0/DLM_Userlogic_inst/DSPTop_i/DSPCtrlr_i/DSPFunct_i/FIRFilterTop1_i/FIRFilter_i/RESIZE0__2/P[47:0] is not pipelined (PREG=0). Pipelining the DSP48 output will improve performance and often saves power so it is suggested whenever possible to fully pipeline this function.  If this DSP48 function was inferred, it is suggested to describe an additional register stage after this function.  If the DSP48 was instantiated in the design, it is suggested to set the PREG attribute to 1.
Related violations: <none>

DPOP-1#5 Warning
PREG Output pipelining  
DSP system_i/DLM_0/U0/DLM_Userlogic_inst/DSPTop_i/DSPCtrlr_i/DSPFunct_i/FIRFilterTop1_i/FIRFilter_i/RESIZE0__3 output system_i/DLM_0/U0/DLM_Userlogic_inst/DSPTop_i/DSPCtrlr_i/DSPFunct_i/FIRFilterTop1_i/FIRFilter_i/RESIZE0__3/P[47:0] is not pipelined (PREG=0). Pipelining the DSP48 output will improve performance and often saves power so it is suggested whenever possible to fully pipeline this function.  If this DSP48 function was inferred, it is suggested to describe an additional register stage after this function.  If the DSP48 was instantiated in the design, it is suggested to set the PREG attribute to 1.
Related violations: <none>

DPOP-1#6 Warning
PREG Output pipelining  
DSP system_i/DLM_0/U0/DLM_Userlogic_inst/DSPTop_i/DSPCtrlr_i/DSPFunct_i/FIRFilterTop1_i/FIRFilter_i/RESIZE0__4 output system_i/DLM_0/U0/DLM_Userlogic_inst/DSPTop_i/DSPCtrlr_i/DSPFunct_i/FIRFilterTop1_i/FIRFilter_i/RESIZE0__4/P[47:0] is not pipelined (PREG=0). Pipelining the DSP48 output will improve performance and often saves power so it is suggested whenever possible to fully pipeline this function.  If this DSP48 function was inferred, it is suggested to describe an additional register stage after this function.  If the DSP48 was instantiated in the design, it is suggested to set the PREG attribute to 1.
Related violations: <none>

DPOP-1#7 Warning
PREG Output pipelining  
DSP system_i/DLM_0/U0/DLM_Userlogic_inst/DSPTop_i/DSPCtrlr_i/DSPFunct_i/FIRFilterTop1_i/FIRFilter_i/RESIZE0__5 output system_i/DLM_0/U0/DLM_Userlogic_inst/DSPTop_i/DSPCtrlr_i/DSPFunct_i/FIRFilterTop1_i/FIRFilter_i/RESIZE0__5/P[47:0] is not pipelined (PREG=0). Pipelining the DSP48 output will improve performance and often saves power so it is suggested whenever possible to fully pipeline this function.  If this DSP48 function was inferred, it is suggested to describe an additional register stage after this function.  If the DSP48 was instantiated in the design, it is suggested to set the PREG attribute to 1.
Related violations: <none>

DPOP-1#8 Warning
PREG Output pipelining  
DSP system_i/DLM_0/U0/DLM_Userlogic_inst/DSPTop_i/DSPCtrlr_i/DSPFunct_i/FIRFilterTop1_i/FIRFilter_i/RESIZE0__6 output system_i/DLM_0/U0/DLM_Userlogic_inst/DSPTop_i/DSPCtrlr_i/DSPFunct_i/FIRFilterTop1_i/FIRFilter_i/RESIZE0__6/P[47:0] is not pipelined (PREG=0). Pipelining the DSP48 output will improve performance and often saves power so it is suggested whenever possible to fully pipeline this function.  If this DSP48 function was inferred, it is suggested to describe an additional register stage after this function.  If the DSP48 was instantiated in the design, it is suggested to set the PREG attribute to 1.
Related violations: <none>

DPOP-1#9 Warning
PREG Output pipelining  
DSP system_i/DLM_0/U0/DLM_Userlogic_inst/DSPTop_i/DSPCtrlr_i/DSPFunct_i/FIRFilterTop1_i/FIRFilter_i/addLvl0[1] output system_i/DLM_0/U0/DLM_Userlogic_inst/DSPTop_i/DSPCtrlr_i/DSPFunct_i/FIRFilterTop1_i/FIRFilter_i/addLvl0[1]/P[47:0] is not pipelined (PREG=0). Pipelining the DSP48 output will improve performance and often saves power so it is suggested whenever possible to fully pipeline this function.  If this DSP48 function was inferred, it is suggested to describe an additional register stage after this function.  If the DSP48 was instantiated in the design, it is suggested to set the PREG attribute to 1.
Related violations: <none>

DPOP-1#10 Warning
PREG Output pipelining  
DSP system_i/DLM_0/U0/DLM_Userlogic_inst/DSPTop_i/DSPCtrlr_i/DSPFunct_i/FIRFilterTop1_i/FIRFilter_i/addLvl0[3] output system_i/DLM_0/U0/DLM_Userlogic_inst/DSPTop_i/DSPCtrlr_i/DSPFunct_i/FIRFilterTop1_i/FIRFilter_i/addLvl0[3]/P[47:0] is not pipelined (PREG=0). Pipelining the DSP48 output will improve performance and often saves power so it is suggested whenever possible to fully pipeline this function.  If this DSP48 function was inferred, it is suggested to describe an additional register stage after this function.  If the DSP48 was instantiated in the design, it is suggested to set the PREG attribute to 1.
Related violations: <none>

DPOP-1#11 Warning
PREG Output pipelining  
DSP system_i/DLM_0/U0/DLM_Userlogic_inst/DSPTop_i/DSPCtrlr_i/DSPFunct_i/FIRFilterTop1_i/FIRFilter_i/addLvl0[5] output system_i/DLM_0/U0/DLM_Userlogic_inst/DSPTop_i/DSPCtrlr_i/DSPFunct_i/FIRFilterTop1_i/FIRFilter_i/addLvl0[5]/P[47:0] is not pipelined (PREG=0). Pipelining the DSP48 output will improve performance and often saves power so it is suggested whenever possible to fully pipeline this function.  If this DSP48 function was inferred, it is suggested to describe an additional register stage after this function.  If the DSP48 was instantiated in the design, it is suggested to set the PREG attribute to 1.
Related violations: <none>

DPOP-1#12 Warning
PREG Output pipelining  
DSP system_i/DLM_0/U0/DLM_Userlogic_inst/DSPTop_i/DSPCtrlr_i/DSPFunct_i/FIRFilterTop1_i/FIRFilter_i/addLvl0[7] output system_i/DLM_0/U0/DLM_Userlogic_inst/DSPTop_i/DSPCtrlr_i/DSPFunct_i/FIRFilterTop1_i/FIRFilter_i/addLvl0[7]/P[47:0] is not pipelined (PREG=0). Pipelining the DSP48 output will improve performance and often saves power so it is suggested whenever possible to fully pipeline this function.  If this DSP48 function was inferred, it is suggested to describe an additional register stage after this function.  If the DSP48 was instantiated in the design, it is suggested to set the PREG attribute to 1.
Related violations: <none>

DPOP-1#13 Warning
PREG Output pipelining  
DSP system_i/DLM_0/U0/DLM_Userlogic_inst/DSPTop_i/DSPCtrlr_i/DSPFunct_i/FIRFilterTop1_i/FIRFilter_i/addLvl1[1] output system_i/DLM_0/U0/DLM_Userlogic_inst/DSPTop_i/DSPCtrlr_i/DSPFunct_i/FIRFilterTop1_i/FIRFilter_i/addLvl1[1]/P[47:0] is not pipelined (PREG=0). Pipelining the DSP48 output will improve performance and often saves power so it is suggested whenever possible to fully pipeline this function.  If this DSP48 function was inferred, it is suggested to describe an additional register stage after this function.  If the DSP48 was instantiated in the design, it is suggested to set the PREG attribute to 1.
Related violations: <none>

DPOP-1#14 Warning
PREG Output pipelining  
DSP system_i/DLM_0/U0/DLM_Userlogic_inst/DSPTop_i/DSPCtrlr_i/DSPFunct_i/FIRFilterTop1_i/FIRFilter_i/addLvl1[3] output system_i/DLM_0/U0/DLM_Userlogic_inst/DSPTop_i/DSPCtrlr_i/DSPFunct_i/FIRFilterTop1_i/FIRFilter_i/addLvl1[3]/P[47:0] is not pipelined (PREG=0). Pipelining the DSP48 output will improve performance and often saves power so it is suggested whenever possible to fully pipeline this function.  If this DSP48 function was inferred, it is suggested to describe an additional register stage after this function.  If the DSP48 was instantiated in the design, it is suggested to set the PREG attribute to 1.
Related violations: <none>

DPOP-1#15 Warning
PREG Output pipelining  
DSP system_i/DLM_0/U0/DLM_Userlogic_inst/DSPTop_i/DSPCtrlr_i/DSPFunct_i/FIRFilterTop1_i/FIRFilter_i/addLvl2[1] output system_i/DLM_0/U0/DLM_Userlogic_inst/DSPTop_i/DSPCtrlr_i/DSPFunct_i/FIRFilterTop1_i/FIRFilter_i/addLvl2[1]/P[47:0] is not pipelined (PREG=0). Pipelining the DSP48 output will improve performance and often saves power so it is suggested whenever possible to fully pipeline this function.  If this DSP48 function was inferred, it is suggested to describe an additional register stage after this function.  If the DSP48 was instantiated in the design, it is suggested to set the PREG attribute to 1.
Related violations: <none>

DPOP-1#16 Warning
PREG Output pipelining  
DSP system_i/DLM_0/U0/DLM_Userlogic_inst/DSPTop_i/DSPCtrlr_i/DSPFunct_i/FIRFilterTop1_i/FIRFilter_i/addLvl3 output system_i/DLM_0/U0/DLM_Userlogic_inst/DSPTop_i/DSPCtrlr_i/DSPFunct_i/FIRFilterTop1_i/FIRFilter_i/addLvl3/P[47:0] is not pipelined (PREG=0). Pipelining the DSP48 output will improve performance and often saves power so it is suggested whenever possible to fully pipeline this function.  If this DSP48 function was inferred, it is suggested to describe an additional register stage after this function.  If the DSP48 was instantiated in the design, it is suggested to set the PREG attribute to 1.
Related violations: <none>

DPOP-1#17 Warning
PREG Output pipelining  
DSP system_i/DLM_0/U0/DLM_Userlogic_inst/DSPTop_i/DSPCtrlr_i/DSPFunct_i/Tremelo0_i/u_MATLAB_Function/q3 output system_i/DLM_0/U0/DLM_Userlogic_inst/DSPTop_i/DSPCtrlr_i/DSPFunct_i/Tremelo0_i/u_MATLAB_Function/q3/P[47:0] is not pipelined (PREG=0). Pipelining the DSP48 output will improve performance and often saves power so it is suggested whenever possible to fully pipeline this function.  If this DSP48 function was inferred, it is suggested to describe an additional register stage after this function.  If the DSP48 was instantiated in the design, it is suggested to set the PREG attribute to 1.
Related violations: <none>

DPOP-1#18 Warning
PREG Output pipelining  
DSP system_i/DLM_0/U0/DLM_Userlogic_inst/DSPTop_i/DSPCtrlr_i/DSPFunct_i/Tremelo0_i/u_MATLAB_Function/tremelo_tmp3 output system_i/DLM_0/U0/DLM_Userlogic_inst/DSPTop_i/DSPCtrlr_i/DSPFunct_i/Tremelo0_i/u_MATLAB_Function/tremelo_tmp3/P[47:0] is not pipelined (PREG=0). Pipelining the DSP48 output will improve performance and often saves power so it is suggested whenever possible to fully pipeline this function.  If this DSP48 function was inferred, it is suggested to describe an additional register stage after this function.  If the DSP48 was instantiated in the design, it is suggested to set the PREG attribute to 1.
Related violations: <none>

DPOP-2#1 Warning
MREG Output pipelining  
DSP system_i/DLM_0/U0/DLM_Userlogic_inst/DSPTop_i/DSPCtrlr_i/DSPFunct_i/FIRFilterTop1_i/FIRFilter_i/RESIZE0 multiplier stage system_i/DLM_0/U0/DLM_Userlogic_inst/DSPTop_i/DSPCtrlr_i/DSPFunct_i/FIRFilterTop1_i/FIRFilter_i/RESIZE0/P[47:0] is not pipelined (MREG=0). Pipelining the multiplier function will improve performance and will save significant power so it is suggested whenever possible to fully pipeline this function.  If this multiplier was inferred, it is suggested to describe an additional register stage after this function.  If there is no registered adder/accumulator following the multiply function, two pipeline stages are suggested to allow both the MREG and PREG registers to be used.  If the DSP48 was instantiated in the design, it is suggested to set both the MREG and PREG attributes to 1 when performing multiply functions.
Related violations: <none>

DPOP-2#2 Warning
MREG Output pipelining  
DSP system_i/DLM_0/U0/DLM_Userlogic_inst/DSPTop_i/DSPCtrlr_i/DSPFunct_i/FIRFilterTop1_i/FIRFilter_i/RESIZE0__0 multiplier stage system_i/DLM_0/U0/DLM_Userlogic_inst/DSPTop_i/DSPCtrlr_i/DSPFunct_i/FIRFilterTop1_i/FIRFilter_i/RESIZE0__0/P[47:0] is not pipelined (MREG=0). Pipelining the multiplier function will improve performance and will save significant power so it is suggested whenever possible to fully pipeline this function.  If this multiplier was inferred, it is suggested to describe an additional register stage after this function.  If there is no registered adder/accumulator following the multiply function, two pipeline stages are suggested to allow both the MREG and PREG registers to be used.  If the DSP48 was instantiated in the design, it is suggested to set both the MREG and PREG attributes to 1 when performing multiply functions.
Related violations: <none>

DPOP-2#3 Warning
MREG Output pipelining  
DSP system_i/DLM_0/U0/DLM_Userlogic_inst/DSPTop_i/DSPCtrlr_i/DSPFunct_i/FIRFilterTop1_i/FIRFilter_i/RESIZE0__1 multiplier stage system_i/DLM_0/U0/DLM_Userlogic_inst/DSPTop_i/DSPCtrlr_i/DSPFunct_i/FIRFilterTop1_i/FIRFilter_i/RESIZE0__1/P[47:0] is not pipelined (MREG=0). Pipelining the multiplier function will improve performance and will save significant power so it is suggested whenever possible to fully pipeline this function.  If this multiplier was inferred, it is suggested to describe an additional register stage after this function.  If there is no registered adder/accumulator following the multiply function, two pipeline stages are suggested to allow both the MREG and PREG registers to be used.  If the DSP48 was instantiated in the design, it is suggested to set both the MREG and PREG attributes to 1 when performing multiply functions.
Related violations: <none>

DPOP-2#4 Warning
MREG Output pipelining  
DSP system_i/DLM_0/U0/DLM_Userlogic_inst/DSPTop_i/DSPCtrlr_i/DSPFunct_i/FIRFilterTop1_i/FIRFilter_i/RESIZE0__2 multiplier stage system_i/DLM_0/U0/DLM_Userlogic_inst/DSPTop_i/DSPCtrlr_i/DSPFunct_i/FIRFilterTop1_i/FIRFilter_i/RESIZE0__2/P[47:0] is not pipelined (MREG=0). Pipelining the multiplier function will improve performance and will save significant power so it is suggested whenever possible to fully pipeline this function.  If this multiplier was inferred, it is suggested to describe an additional register stage after this function.  If there is no registered adder/accumulator following the multiply function, two pipeline stages are suggested to allow both the MREG and PREG registers to be used.  If the DSP48 was instantiated in the design, it is suggested to set both the MREG and PREG attributes to 1 when performing multiply functions.
Related violations: <none>

DPOP-2#5 Warning
MREG Output pipelining  
DSP system_i/DLM_0/U0/DLM_Userlogic_inst/DSPTop_i/DSPCtrlr_i/DSPFunct_i/FIRFilterTop1_i/FIRFilter_i/RESIZE0__3 multiplier stage system_i/DLM_0/U0/DLM_Userlogic_inst/DSPTop_i/DSPCtrlr_i/DSPFunct_i/FIRFilterTop1_i/FIRFilter_i/RESIZE0__3/P[47:0] is not pipelined (MREG=0). Pipelining the multiplier function will improve performance and will save significant power so it is suggested whenever possible to fully pipeline this function.  If this multiplier was inferred, it is suggested to describe an additional register stage after this function.  If there is no registered adder/accumulator following the multiply function, two pipeline stages are suggested to allow both the MREG and PREG registers to be used.  If the DSP48 was instantiated in the design, it is suggested to set both the MREG and PREG attributes to 1 when performing multiply functions.
Related violations: <none>

DPOP-2#6 Warning
MREG Output pipelining  
DSP system_i/DLM_0/U0/DLM_Userlogic_inst/DSPTop_i/DSPCtrlr_i/DSPFunct_i/FIRFilterTop1_i/FIRFilter_i/RESIZE0__4 multiplier stage system_i/DLM_0/U0/DLM_Userlogic_inst/DSPTop_i/DSPCtrlr_i/DSPFunct_i/FIRFilterTop1_i/FIRFilter_i/RESIZE0__4/P[47:0] is not pipelined (MREG=0). Pipelining the multiplier function will improve performance and will save significant power so it is suggested whenever possible to fully pipeline this function.  If this multiplier was inferred, it is suggested to describe an additional register stage after this function.  If there is no registered adder/accumulator following the multiply function, two pipeline stages are suggested to allow both the MREG and PREG registers to be used.  If the DSP48 was instantiated in the design, it is suggested to set both the MREG and PREG attributes to 1 when performing multiply functions.
Related violations: <none>

DPOP-2#7 Warning
MREG Output pipelining  
DSP system_i/DLM_0/U0/DLM_Userlogic_inst/DSPTop_i/DSPCtrlr_i/DSPFunct_i/FIRFilterTop1_i/FIRFilter_i/RESIZE0__5 multiplier stage system_i/DLM_0/U0/DLM_Userlogic_inst/DSPTop_i/DSPCtrlr_i/DSPFunct_i/FIRFilterTop1_i/FIRFilter_i/RESIZE0__5/P[47:0] is not pipelined (MREG=0). Pipelining the multiplier function will improve performance and will save significant power so it is suggested whenever possible to fully pipeline this function.  If this multiplier was inferred, it is suggested to describe an additional register stage after this function.  If there is no registered adder/accumulator following the multiply function, two pipeline stages are suggested to allow both the MREG and PREG registers to be used.  If the DSP48 was instantiated in the design, it is suggested to set both the MREG and PREG attributes to 1 when performing multiply functions.
Related violations: <none>

DPOP-2#8 Warning
MREG Output pipelining  
DSP system_i/DLM_0/U0/DLM_Userlogic_inst/DSPTop_i/DSPCtrlr_i/DSPFunct_i/FIRFilterTop1_i/FIRFilter_i/RESIZE0__6 multiplier stage system_i/DLM_0/U0/DLM_Userlogic_inst/DSPTop_i/DSPCtrlr_i/DSPFunct_i/FIRFilterTop1_i/FIRFilter_i/RESIZE0__6/P[47:0] is not pipelined (MREG=0). Pipelining the multiplier function will improve performance and will save significant power so it is suggested whenever possible to fully pipeline this function.  If this multiplier was inferred, it is suggested to describe an additional register stage after this function.  If there is no registered adder/accumulator following the multiply function, two pipeline stages are suggested to allow both the MREG and PREG registers to be used.  If the DSP48 was instantiated in the design, it is suggested to set both the MREG and PREG attributes to 1 when performing multiply functions.
Related violations: <none>

DPOP-2#9 Warning
MREG Output pipelining  
DSP system_i/DLM_0/U0/DLM_Userlogic_inst/DSPTop_i/DSPCtrlr_i/DSPFunct_i/FIRFilterTop1_i/FIRFilter_i/addLvl0[1] multiplier stage system_i/DLM_0/U0/DLM_Userlogic_inst/DSPTop_i/DSPCtrlr_i/DSPFunct_i/FIRFilterTop1_i/FIRFilter_i/addLvl0[1]/P[47:0] is not pipelined (MREG=0). Pipelining the multiplier function will improve performance and will save significant power so it is suggested whenever possible to fully pipeline this function.  If this multiplier was inferred, it is suggested to describe an additional register stage after this function.  If there is no registered adder/accumulator following the multiply function, two pipeline stages are suggested to allow both the MREG and PREG registers to be used.  If the DSP48 was instantiated in the design, it is suggested to set both the MREG and PREG attributes to 1 when performing multiply functions.
Related violations: <none>

DPOP-2#10 Warning
MREG Output pipelining  
DSP system_i/DLM_0/U0/DLM_Userlogic_inst/DSPTop_i/DSPCtrlr_i/DSPFunct_i/FIRFilterTop1_i/FIRFilter_i/addLvl0[3] multiplier stage system_i/DLM_0/U0/DLM_Userlogic_inst/DSPTop_i/DSPCtrlr_i/DSPFunct_i/FIRFilterTop1_i/FIRFilter_i/addLvl0[3]/P[47:0] is not pipelined (MREG=0). Pipelining the multiplier function will improve performance and will save significant power so it is suggested whenever possible to fully pipeline this function.  If this multiplier was inferred, it is suggested to describe an additional register stage after this function.  If there is no registered adder/accumulator following the multiply function, two pipeline stages are suggested to allow both the MREG and PREG registers to be used.  If the DSP48 was instantiated in the design, it is suggested to set both the MREG and PREG attributes to 1 when performing multiply functions.
Related violations: <none>

DPOP-2#11 Warning
MREG Output pipelining  
DSP system_i/DLM_0/U0/DLM_Userlogic_inst/DSPTop_i/DSPCtrlr_i/DSPFunct_i/FIRFilterTop1_i/FIRFilter_i/addLvl0[5] multiplier stage system_i/DLM_0/U0/DLM_Userlogic_inst/DSPTop_i/DSPCtrlr_i/DSPFunct_i/FIRFilterTop1_i/FIRFilter_i/addLvl0[5]/P[47:0] is not pipelined (MREG=0). Pipelining the multiplier function will improve performance and will save significant power so it is suggested whenever possible to fully pipeline this function.  If this multiplier was inferred, it is suggested to describe an additional register stage after this function.  If there is no registered adder/accumulator following the multiply function, two pipeline stages are suggested to allow both the MREG and PREG registers to be used.  If the DSP48 was instantiated in the design, it is suggested to set both the MREG and PREG attributes to 1 when performing multiply functions.
Related violations: <none>

DPOP-2#12 Warning
MREG Output pipelining  
DSP system_i/DLM_0/U0/DLM_Userlogic_inst/DSPTop_i/DSPCtrlr_i/DSPFunct_i/FIRFilterTop1_i/FIRFilter_i/addLvl0[7] multiplier stage system_i/DLM_0/U0/DLM_Userlogic_inst/DSPTop_i/DSPCtrlr_i/DSPFunct_i/FIRFilterTop1_i/FIRFilter_i/addLvl0[7]/P[47:0] is not pipelined (MREG=0). Pipelining the multiplier function will improve performance and will save significant power so it is suggested whenever possible to fully pipeline this function.  If this multiplier was inferred, it is suggested to describe an additional register stage after this function.  If there is no registered adder/accumulator following the multiply function, two pipeline stages are suggested to allow both the MREG and PREG registers to be used.  If the DSP48 was instantiated in the design, it is suggested to set both the MREG and PREG attributes to 1 when performing multiply functions.
Related violations: <none>

DPOP-2#13 Warning
MREG Output pipelining  
DSP system_i/DLM_0/U0/DLM_Userlogic_inst/DSPTop_i/DSPCtrlr_i/DSPFunct_i/Tremelo0_i/u_MATLAB_Function/q3 multiplier stage system_i/DLM_0/U0/DLM_Userlogic_inst/DSPTop_i/DSPCtrlr_i/DSPFunct_i/Tremelo0_i/u_MATLAB_Function/q3/P[47:0] is not pipelined (MREG=0). Pipelining the multiplier function will improve performance and will save significant power so it is suggested whenever possible to fully pipeline this function.  If this multiplier was inferred, it is suggested to describe an additional register stage after this function.  If there is no registered adder/accumulator following the multiply function, two pipeline stages are suggested to allow both the MREG and PREG registers to be used.  If the DSP48 was instantiated in the design, it is suggested to set both the MREG and PREG attributes to 1 when performing multiply functions.
Related violations: <none>

DPOP-2#14 Warning
MREG Output pipelining  
DSP system_i/DLM_0/U0/DLM_Userlogic_inst/DSPTop_i/DSPCtrlr_i/DSPFunct_i/Tremelo0_i/u_MATLAB_Function/tremelo_tmp3 multiplier stage system_i/DLM_0/U0/DLM_Userlogic_inst/DSPTop_i/DSPCtrlr_i/DSPFunct_i/Tremelo0_i/u_MATLAB_Function/tremelo_tmp3/P[47:0] is not pipelined (MREG=0). Pipelining the multiplier function will improve performance and will save significant power so it is suggested whenever possible to fully pipeline this function.  If this multiplier was inferred, it is suggested to describe an additional register stage after this function.  If there is no registered adder/accumulator following the multiply function, two pipeline stages are suggested to allow both the MREG and PREG registers to be used.  If the DSP48 was instantiated in the design, it is suggested to set both the MREG and PREG attributes to 1 when performing multiply functions.
Related violations: <none>


