Copyright 1986-2017 Xilinx, Inc. All Rights Reserved.
----------------------------------------------------------------------------------------------------------------------------------------------------------------
| Tool Version     : Vivado v.2017.3 (win64) Build 2018833 Wed Oct  4 19:58:22 MDT 2017
| Date             : Tue Mar 27 19:36:11 2018
| Host             : Hilary running 64-bit major release  (build 9200)
| Command          : report_power -file system_wrapper_power_routed.rpt -pb system_wrapper_power_summary_routed.pb -rpx system_wrapper_power_routed.rpx
| Design           : system_wrapper
| Device           : xc7z020clg400-1
| Design State     : routed
| Grade            : commercial
| Process          : typical
| Characterization : Production
----------------------------------------------------------------------------------------------------------------------------------------------------------------

Power Report

Table of Contents
-----------------
1. Summary
1.1 On-Chip Components
1.2 Power Supply Summary
1.3 Confidence Level
2. Settings
2.1 Environment
2.2 Clock Constraints
3. Detailed Reports
3.1 By Hierarchy

1. Summary
----------

+--------------------------+--------------+
| Total On-Chip Power (W)  | 1.569        |
| Design Power Budget (W)  | Unspecified* |
| Power Budget Margin (W)  | NA           |
| Dynamic (W)              | 1.433        |
| Device Static (W)        | 0.136        |
| Effective TJA (C/W)      | 11.5         |
| Max Ambient (C)          | 66.9         |
| Junction Temperature (C) | 43.1         |
| Confidence Level         | Low          |
| Setting File             | ---          |
| Simulation Activity File | ---          |
| Design Nets Matched      | NA           |
+--------------------------+--------------+
* Specify Design Power Budget using, set_operating_conditions -design_power_budget <value in Watts>


1.1 On-Chip Components
----------------------

+-------------------------+-----------+----------+-----------+-----------------+
| On-Chip                 | Power (W) | Used     | Available | Utilization (%) |
+-------------------------+-----------+----------+-----------+-----------------+
| Clocks                  |     0.006 |        6 |       --- |             --- |
| Slice Logic             |     0.068 |    22631 |       --- |             --- |
|   LUT as Logic          |     0.061 |     8426 |     53200 |           15.84 |
|   F7/F8 Muxes           |     0.006 |     3344 |     53200 |            6.29 |
|   CARRY4                |    <0.001 |      149 |     13300 |            1.12 |
|   Register              |    <0.001 |     9994 |    106400 |            9.39 |
|   BUFG                  |    <0.001 |        2 |        32 |            6.25 |
|   Others                |     0.000 |      260 |       --- |             --- |
|   LUT as Shift Register |     0.000 |        1 |     17400 |           <0.01 |
| Signals                 |     0.105 |    15591 |       --- |             --- |
| Block RAM               |    <0.001 |       29 |       140 |           20.71 |
| DSPs                    |     0.002 |       25 |       220 |           11.36 |
| I/O                     |     0.000 |        4 |       125 |            3.20 |
| PS7                     |     1.252 |        1 |       --- |             --- |
| Static Power            |     0.136 |          |           |                 |
| Total                   |     1.569 |          |           |                 |
+-------------------------+-----------+----------+-----------+-----------------+


1.2 Power Supply Summary
------------------------

+-----------+-------------+-----------+-------------+------------+
| Source    | Voltage (V) | Total (A) | Dynamic (A) | Static (A) |
+-----------+-------------+-----------+-------------+------------+
| Vccint    |       1.000 |     0.196 |       0.181 |      0.015 |
| Vccaux    |       1.800 |     0.015 |       0.000 |      0.015 |
| Vcco33    |       3.300 |     0.000 |       0.000 |      0.000 |
| Vcco25    |       2.500 |     0.000 |       0.000 |      0.000 |
| Vcco18    |       1.800 |     0.000 |       0.000 |      0.000 |
| Vcco15    |       1.500 |     0.000 |       0.000 |      0.000 |
| Vcco135   |       1.350 |     0.000 |       0.000 |      0.000 |
| Vcco12    |       1.200 |     0.000 |       0.000 |      0.000 |
| Vccaux_io |       1.800 |     0.000 |       0.000 |      0.000 |
| Vccbram   |       1.000 |     0.003 |       0.000 |      0.003 |
| MGTAVcc   |       1.000 |     0.000 |       0.000 |      0.000 |
| MGTAVtt   |       1.200 |     0.000 |       0.000 |      0.000 |
| MGTVccaux |       1.800 |     0.000 |       0.000 |      0.000 |
| Vccpint   |       1.000 |     0.681 |       0.652 |      0.029 |
| Vccpaux   |       1.800 |     0.035 |       0.025 |      0.010 |
| Vccpll    |       1.800 |     0.018 |       0.015 |      0.003 |
| Vcco_ddr  |       1.500 |     0.354 |       0.352 |      0.002 |
| Vcco_mio0 |       1.800 |     0.000 |       0.000 |      0.000 |
| Vcco_mio1 |       1.800 |     0.000 |       0.000 |      0.000 |
| Vccadc    |       1.800 |     0.020 |       0.000 |      0.020 |
+-----------+-------------+-----------+-------------+------------+


1.3 Confidence Level
--------------------

+-----------------------------+------------+------------------------------------------------+--------------------------------------------------------------------------------------------------------------------+
| User Input Data             | Confidence | Details                                        | Action                                                                                                             |
+-----------------------------+------------+------------------------------------------------+--------------------------------------------------------------------------------------------------------------------+
| Design implementation state | High       | Design is routed                               |                                                                                                                    |
| Clock nodes activity        | Low        | User specified less than 75% of clocks         | Provide missing clock activity with a constraint file, simulation results or by editing the "By Clock Domain" view |
| I/O nodes activity          | High       | User specified more than 95% of inputs         |                                                                                                                    |
| Internal nodes activity     | Medium     | User specified less than 25% of internal nodes | Provide missing internal nodes activity with simulation results or by editing the "By Resource Type" views         |
| Device models               | High       | Device models are Production                   |                                                                                                                    |
|                             |            |                                                |                                                                                                                    |
| Overall confidence level    | Low        |                                                |                                                                                                                    |
+-----------------------------+------------+------------------------------------------------+--------------------------------------------------------------------------------------------------------------------+


2. Settings
-----------

2.1 Environment
---------------

+-----------------------+------------------------+
| Ambient Temp (C)      | 25.0                   |
| ThetaJA (C/W)         | 11.5                   |
| Airflow (LFM)         | 250                    |
| Heat Sink             | none                   |
| ThetaSA (C/W)         | 0.0                    |
| Board Selection       | medium (10"x10")       |
| # of Board Layers     | 8to11 (8 to 11 Layers) |
| Board Temperature (C) | 25.0                   |
+-----------------------+------------------------+


2.2 Clock Constraints
---------------------

+------------+-----------------------------------------------------------+-----------------+
| Clock      | Domain                                                    | Constraint (ns) |
+------------+-----------------------------------------------------------+-----------------+
| clk_fpga_0 | system_i/processing_system7_0/inst/FCLK_CLK_unbuffered[0] |            10.0 |
+------------+-----------------------------------------------------------+-----------------+


3. Detailed Reports
-------------------

3.1 By Hierarchy
----------------

+------------------------------------------------------+-----------+
| Name                                                 | Power (W) |
+------------------------------------------------------+-----------+
| system_wrapper                                       |     1.433 |
|   system_i                                           |     1.433 |
|     DLM_0                                            |     0.180 |
|       U0                                             |     0.180 |
|         DLM_Userlogic_inst                           |     0.165 |
|           DSPTop_i                                   |     0.165 |
|             DSPCtrlr_i                               |     0.046 |
|               DSPFunct_i                             |     0.011 |
|                 FIRFilterTop1_i                      |    <0.001 |
|                   FIRFilter_i                        |    <0.001 |
|                   ctrlRegBlk16x16_i                  |    <0.001 |
|                 Tremelo0_i                           |     0.008 |
|                   u_MATLAB_Function                  |     0.008 |
|                 distortion2_i                        |    <0.001 |
|             DSPMem_i                                 |     0.119 |
|             singleShot_i                             |    <0.001 |
|         DLM_core_inst                                |     0.014 |
|           BRAM0_inst                                 |    <0.001 |
|             U0                                       |    <0.001 |
|               inst_blk_mem_gen                       |    <0.001 |
|                 gnbram.gnativebmg.native_blk_mem_gen |    <0.001 |
|                   valid.cstr                         |    <0.001 |
|                     bindec_a.bindec_inst_a           |    <0.001 |
|                     has_mux_a.A                      |    <0.001 |
|                     ramloop[0].ram.r                 |    <0.001 |
|                       prim_noinit.ram                |    <0.001 |
|                     ramloop[10].ram.r                |    <0.001 |
|                       prim_noinit.ram                |    <0.001 |
|                     ramloop[11].ram.r                |    <0.001 |
|                       prim_noinit.ram                |    <0.001 |
|                     ramloop[12].ram.r                |    <0.001 |
|                       prim_noinit.ram                |    <0.001 |
|                     ramloop[13].ram.r                |    <0.001 |
|                       prim_noinit.ram                |    <0.001 |
|                     ramloop[14].ram.r                |    <0.001 |
|                       prim_noinit.ram                |    <0.001 |
|                     ramloop[1].ram.r                 |    <0.001 |
|                       prim_noinit.ram                |    <0.001 |
|                     ramloop[2].ram.r                 |    <0.001 |
|                       prim_noinit.ram                |    <0.001 |
|                     ramloop[3].ram.r                 |    <0.001 |
|                       prim_noinit.ram                |    <0.001 |
|                     ramloop[4].ram.r                 |    <0.001 |
|                       prim_noinit.ram                |    <0.001 |
|                     ramloop[5].ram.r                 |    <0.001 |
|                       prim_noinit.ram                |    <0.001 |
|                     ramloop[6].ram.r                 |    <0.001 |
|                       prim_noinit.ram                |    <0.001 |
|                     ramloop[7].ram.r                 |    <0.001 |
|                       prim_noinit.ram                |    <0.001 |
|                     ramloop[8].ram.r                 |    <0.001 |
|                       prim_noinit.ram                |    <0.001 |
|                     ramloop[9].ram.r                 |    <0.001 |
|                       prim_noinit.ram                |    <0.001 |
|           BRAM1_inst                                 |    <0.001 |
|             U0                                       |    <0.001 |
|               inst_blk_mem_gen                       |    <0.001 |
|                 gnbram.gnativebmg.native_blk_mem_gen |    <0.001 |
|                   valid.cstr                         |    <0.001 |
|                     bindec_a.bindec_inst_a           |    <0.001 |
|                     has_mux_a.A                      |    <0.001 |
|                     ramloop[0].ram.r                 |    <0.001 |
|                       prim_noinit.ram                |    <0.001 |
|                     ramloop[10].ram.r                |    <0.001 |
|                       prim_noinit.ram                |    <0.001 |
|                     ramloop[11].ram.r                |    <0.001 |
|                       prim_noinit.ram                |    <0.001 |
|                     ramloop[12].ram.r                |    <0.001 |
|                       prim_noinit.ram                |    <0.001 |
|                     ramloop[13].ram.r                |    <0.001 |
|                       prim_noinit.ram                |    <0.001 |
|                     ramloop[14].ram.r                |    <0.001 |
|                       prim_noinit.ram                |    <0.001 |
|                     ramloop[1].ram.r                 |    <0.001 |
|                       prim_noinit.ram                |    <0.001 |
|                     ramloop[2].ram.r                 |    <0.001 |
|                       prim_noinit.ram                |    <0.001 |
|                     ramloop[3].ram.r                 |    <0.001 |
|                       prim_noinit.ram                |    <0.001 |
|                     ramloop[4].ram.r                 |    <0.001 |
|                       prim_noinit.ram                |    <0.001 |
|                     ramloop[5].ram.r                 |    <0.001 |
|                       prim_noinit.ram                |    <0.001 |
|                     ramloop[6].ram.r                 |    <0.001 |
|                       prim_noinit.ram                |    <0.001 |
|                     ramloop[7].ram.r                 |    <0.001 |
|                       prim_noinit.ram                |    <0.001 |
|                     ramloop[8].ram.r                 |    <0.001 |
|                       prim_noinit.ram                |    <0.001 |
|                     ramloop[9].ram.r                 |    <0.001 |
|                       prim_noinit.ram                |    <0.001 |
|           clkControlFSM_i                            |     0.006 |
|     processing_system7_0                             |     1.253 |
|       inst                                           |     1.253 |
|     processing_system7_0_axi_periph                  |     0.000 |
|       s00_couplers                                   |     0.000 |
|         auto_pc                                      |     0.000 |
|     rst_processing_system7_0_100M                    |    <0.001 |
|       U0                                             |    <0.001 |
|         EXT_LPF                                      |    <0.001 |
|           ACTIVE_LOW_AUX.ACT_LO_AUX                  |    <0.001 |
|           ACTIVE_LOW_EXT.ACT_LO_EXT                  |    <0.001 |
|         SEQ                                          |    <0.001 |
|           SEQ_COUNTER                                |    <0.001 |
+------------------------------------------------------+-----------+


