Copyright 1986-2017 Xilinx, Inc. All Rights Reserved.
------------------------------------------------------------------------------------
| Tool Version : Vivado v.2017.3 (win64) Build 2018833 Wed Oct  4 19:58:22 MDT 2017
| Date         : Tue Mar 27 19:31:29 2018
| Host         : Hilary running 64-bit major release  (build 9200)
| Command      : report_control_sets -file system_wrapper_control_sets_placed.rpt
| Design       : system_wrapper
| Device       : xc7z020
------------------------------------------------------------------------------------

Control Set Information

Table of Contents
-----------------
1. Summary
2. Flip-Flop Distribution

1. Summary
----------

+-------------------------------+-------+
|             Status            | Count |
+-------------------------------+-------+
| Number of unique control sets |   677 |
+-------------------------------+-------+


2. Flip-Flop Distribution
-------------------------

+--------------+-----------------------+------------------------+-----------------+--------------+
| Clock Enable | Synchronous Set/Reset | Asynchronous Set/Reset | Total Registers | Total Slices |
+--------------+-----------------------+------------------------+-----------------+--------------+
| No           | No                    | No                     |             105 |           54 |
| No           | No                    | Yes                    |              21 |            6 |
| No           | Yes                   | No                     |              14 |            9 |
| Yes          | No                    | No                     |            9256 |         4291 |
| Yes          | No                    | Yes                    |             290 |           73 |
| Yes          | Yes                   | No                     |             308 |           82 |
+--------------+-----------------------+------------------------+-----------------+--------------+


