Copyright 1986-2017 Xilinx, Inc. All Rights Reserved.
-------------------------------------------------------------------------------------------------------------------------------------------------------
| Tool Version : Vivado v.2017.3 (win64) Build 2018833 Wed Oct  4 19:58:22 MDT 2017
| Date         : Mon Mar 19 13:11:52 2018
| Host         : DESKTOP-597B57E running 64-bit major release  (build 9200)
| Command      : report_timing_summary -file system_wrapper_timing_summary_routed.rpt -warn_on_violation -rpx system_wrapper_timing_summary_routed.rpx
| Design       : system_wrapper
| Device       : 7z020-clg400
| Speed File   : -1  PRODUCTION 1.11 2014-09-11
-------------------------------------------------------------------------------------------------------------------------------------------------------

Timing Summary Report

------------------------------------------------------------------------------------------------
| Timer Settings
| --------------
------------------------------------------------------------------------------------------------

  Enable Multi Corner Analysis               :  Yes
  Enable Pessimism Removal                   :  Yes
  Pessimism Removal Resolution               :  Nearest Common Node
  Enable Input Delay Default Clock           :  No
  Enable Preset / Clear Arcs                 :  No
  Disable Flight Delays                      :  No
  Ignore I/O Paths                           :  No
  Timing Early Launch at Borrowing Latches   :  false

  Corner  Analyze    Analyze    
  Name    Max Paths  Min Paths  
  ------  ---------  ---------  
  Slow    Yes        Yes        
  Fast    Yes        Yes        



check_timing report

Table of Contents
-----------------
1. checking no_clock
2. checking constant_clock
3. checking pulse_width_clock
4. checking unconstrained_internal_endpoints
5. checking no_input_delay
6. checking no_output_delay
7. checking multiple_clock
8. checking generated_clocks
9. checking loops
10. checking partial_input_delay
11. checking partial_output_delay
12. checking latch_loops

1. checking no_clock
--------------------
 There are 9937 register/latch pins with no clock driven by root clock pin: system_i/DLM_0/U0/DLM_core_inst/clkControlFSM_i/intClk_reg/Q (HIGH)

 There are 32 register/latch pins with no clock driven by root clock pin: system_i/DLM_0/U0/DLM_core_inst/int_variableInMemory_reg[3]/Q (HIGH)

 There are 32 register/latch pins with no clock driven by root clock pin: system_i/DLM_0/U0/DLM_core_inst/int_variableInMemory_reg[6]/Q (HIGH)


2. checking constant_clock
--------------------------
 There are 0 register/latch pins with constant_clock.


3. checking pulse_width_clock
-----------------------------
 There are 0 register/latch pins which need pulse_width check


4. checking unconstrained_internal_endpoints
--------------------------------------------
 There are 21659 pins that are not constrained for maximum delay. (HIGH)

 There are 0 pins that are not constrained for maximum delay due to constant clock.


5. checking no_input_delay
--------------------------
 There are 0 input ports with no input delay specified.

 There are 0 input ports with no input delay but user has a false path constraint.


6. checking no_output_delay
---------------------------
 There are 0 ports with no output delay specified.

 There are 0 ports with no output delay but user has a false path constraint

 There are 0 ports with no output delay but with a timing clock defined on it or propagating through it


7. checking multiple_clock
--------------------------
 There are 0 register/latch pins with multiple clocks.


8. checking generated_clocks
----------------------------
 There are 0 generated clocks that are not connected to a clock source.


9. checking loops
-----------------
 There are 0 combinational loops in the design.


10. checking partial_input_delay
--------------------------------
 There are 0 input ports with partial input delay specified.


11. checking partial_output_delay
---------------------------------
 There are 0 ports with partial output delay specified.


12. checking latch_loops
------------------------
 There are 0 combinational latch loops in the design through latch input



------------------------------------------------------------------------------------------------
| Design Timing Summary
| ---------------------
------------------------------------------------------------------------------------------------

    WNS(ns)      TNS(ns)  TNS Failing Endpoints  TNS Total Endpoints      WHS(ns)      THS(ns)  THS Failing Endpoints  THS Total Endpoints     WPWS(ns)     TPWS(ns)  TPWS Failing Endpoints  TPWS Total Endpoints  
    -------      -------  ---------------------  -------------------      -------      -------  ---------------------  -------------------     --------     --------  ----------------------  --------------------  
     -0.003       -0.005                      2                 3188        0.122        0.000                      0                 3188        4.020        0.000                       0                  1253  


Timing constraints are not met.


------------------------------------------------------------------------------------------------
| Clock Summary
| -------------
------------------------------------------------------------------------------------------------

Clock       Waveform(ns)         Period(ns)      Frequency(MHz)
-----       ------------         ----------      --------------
clk_fpga_0  {0.000 5.000}        10.000          100.000         
clk_fpga_1  {0.000 3.437}        6.875           145.455         
clk_fpga_2  {0.000 2.500}        5.000           200.000         
clk_fpga_3  {0.000 3.125}        6.250           160.000         


------------------------------------------------------------------------------------------------
| Intra Clock Table
| -----------------
------------------------------------------------------------------------------------------------

Clock             WNS(ns)      TNS(ns)  TNS Failing Endpoints  TNS Total Endpoints      WHS(ns)      THS(ns)  THS Failing Endpoints  THS Total Endpoints     WPWS(ns)     TPWS(ns)  TPWS Failing Endpoints  TPWS Total Endpoints  
-----             -------      -------  ---------------------  -------------------      -------      -------  ---------------------  -------------------     --------     --------  ----------------------  --------------------  
clk_fpga_0         -0.003       -0.005                      2                 3152        0.122        0.000                      0                 3152        4.020        0.000                       0                  1253  


------------------------------------------------------------------------------------------------
| Inter Clock Table
| -----------------
------------------------------------------------------------------------------------------------

From Clock    To Clock          WNS(ns)      TNS(ns)  TNS Failing Endpoints  TNS Total Endpoints      WHS(ns)      THS(ns)  THS Failing Endpoints  THS Total Endpoints  
----------    --------          -------      -------  ---------------------  -------------------      -------      -------  ---------------------  -------------------  


------------------------------------------------------------------------------------------------
| Other Path Groups Table
| -----------------------
------------------------------------------------------------------------------------------------

Path Group         From Clock         To Clock               WNS(ns)      TNS(ns)  TNS Failing Endpoints  TNS Total Endpoints      WHS(ns)      THS(ns)  THS Failing Endpoints  THS Total Endpoints  
----------         ----------         --------               -------      -------  ---------------------  -------------------      -------      -------  ---------------------  -------------------  
**async_default**  clk_fpga_0         clk_fpga_0               3.798        0.000                      0                   36        1.990        0.000                      0                   36  


------------------------------------------------------------------------------------------------
| Timing Details
| --------------
------------------------------------------------------------------------------------------------


---------------------------------------------------------------------------------------------------
From Clock:  clk_fpga_0
  To Clock:  clk_fpga_0

Setup :            2  Failing Endpoints,  Worst Slack       -0.003ns,  Total Violation       -0.005ns
Hold  :            0  Failing Endpoints,  Worst Slack        0.122ns,  Total Violation        0.000ns
PW    :            0  Failing Endpoints,  Worst Slack        4.020ns,  Total Violation        0.000ns
---------------------------------------------------------------------------------------------------


Max Delay Paths
--------------------------------------------------------------------------------------
Slack (VIOLATED) :        -0.003ns  (required time - arrival time)
  Source:                 system_i/DLM_0/U0/DLM_core_inst/int_variableInMemory_reg[209]/C
                            (rising edge-triggered cell FDRE clocked by clk_fpga_0  {rise@0.000ns fall@5.000ns period=10.000ns})
  Destination:            system_i/DLM_0/U0/DLM_core_inst/mem_data_out_reg[15]/D
                            (rising edge-triggered cell FDRE clocked by clk_fpga_0  {rise@0.000ns fall@5.000ns period=10.000ns})
  Path Group:             clk_fpga_0
  Path Type:              Setup (Max at Slow Process Corner)
  Requirement:            10.000ns  (clk_fpga_0 rise@10.000ns - clk_fpga_0 rise@0.000ns)
  Data Path Delay:        9.859ns  (logic 2.712ns (27.509%)  route 7.147ns (72.491%))
  Logic Levels:           12  (LUT5=2 LUT6=5 MUXF7=3 MUXF8=2)
  Clock Path Skew:        -0.070ns (DCD - SCD + CPR)
    Destination Clock Delay (DCD):    2.743ns = ( 12.743 - 10.000 ) 
    Source Clock Delay      (SCD):    2.942ns
    Clock Pessimism Removal (CPR):    0.129ns
  Clock Uncertainty:      0.154ns  ((TSJ^2 + TIJ^2)^1/2 + DJ) / 2 + PE
    Total System Jitter     (TSJ):    0.071ns
    Total Input Jitter      (TIJ):    0.300ns
    Discrete Jitter          (DJ):    0.000ns
    Phase Error              (PE):    0.000ns

    Location             Delay type                Incr(ns)  Path(ns)    Netlist Resource(s)
  -------------------------------------------------------------------    -------------------
                         (clock clk_fpga_0 rise edge)
                                                      0.000     0.000 r  
    PS7_X0Y0             PS7                          0.000     0.000 r  system_i/processing_system7_0/inst/PS7_i/FCLKCLK[0]
                         net (fo=1, routed)           1.193     1.193    system_i/processing_system7_0/inst/FCLK_CLK_unbuffered[0]
    BUFGCTRL_X0Y16       BUFG (Prop_bufg_I_O)         0.101     1.294 r  system_i/processing_system7_0/inst/buffer_fclk_clk_0.FCLK_CLK_0_BUFG/O
                         net (fo=1253, routed)        1.648     2.942    system_i/DLM_0/U0/DLM_core_inst/S_AXI_ACLK
    SLICE_X53Y16         FDRE                                         r  system_i/DLM_0/U0/DLM_core_inst/int_variableInMemory_reg[209]/C
  -------------------------------------------------------------------    -------------------
    SLICE_X53Y16         FDRE (Prop_fdre_C_Q)         0.456     3.398 r  system_i/DLM_0/U0/DLM_core_inst/int_variableInMemory_reg[209]/Q
                         net (fo=2073, routed)        2.034     5.432    system_i/DLM_0/U0/DLM_Userlogic_inst/DSPTop_i/DSPMem_i/p0Add[0]
    SLICE_X80Y32         LUT6 (Prop_lut6_I4_O)        0.124     5.556 r  system_i/DLM_0/U0/DLM_Userlogic_inst/DSPTop_i/DSPMem_i/p0DatOut[15]_INST_0_i_176/O
                         net (fo=1, routed)           0.000     5.556    system_i/DLM_0/U0/DLM_Userlogic_inst/DSPTop_i/DSPMem_i/p0DatOut[15]_INST_0_i_176_n_0
    SLICE_X80Y32         MUXF7 (Prop_muxf7_I1_O)      0.217     5.773 r  system_i/DLM_0/U0/DLM_Userlogic_inst/DSPTop_i/DSPMem_i/p0DatOut[15]_INST_0_i_78/O
                         net (fo=1, routed)           0.000     5.773    system_i/DLM_0/U0/DLM_Userlogic_inst/DSPTop_i/DSPMem_i/p0DatOut[15]_INST_0_i_78_n_0
    SLICE_X80Y32         MUXF8 (Prop_muxf8_I1_O)      0.094     5.867 r  system_i/DLM_0/U0/DLM_Userlogic_inst/DSPTop_i/DSPMem_i/p0DatOut[15]_INST_0_i_29/O
                         net (fo=1, routed)           1.340     7.207    system_i/DLM_0/U0/DLM_Userlogic_inst/DSPTop_i/DSPMem_i/p0DatOut[15]_INST_0_i_29_n_0
    SLICE_X70Y26         LUT6 (Prop_lut6_I0_O)        0.316     7.523 r  system_i/DLM_0/U0/DLM_Userlogic_inst/DSPTop_i/DSPMem_i/p0DatOut[15]_INST_0_i_9/O
                         net (fo=1, routed)           0.000     7.523    system_i/DLM_0/U0/DLM_Userlogic_inst/DSPTop_i/DSPMem_i/p0DatOut[15]_INST_0_i_9_n_0
    SLICE_X70Y26         MUXF7 (Prop_muxf7_I0_O)      0.212     7.735 r  system_i/DLM_0/U0/DLM_Userlogic_inst/DSPTop_i/DSPMem_i/p0DatOut[15]_INST_0_i_3/O
                         net (fo=1, routed)           1.443     9.178    system_i/DLM_0/U0/DLM_Userlogic_inst/DSPTop_i/DSPMem_i/p0DatOut[15]_INST_0_i_3_n_0
    SLICE_X37Y26         LUT6 (Prop_lut6_I3_O)        0.299     9.477 r  system_i/DLM_0/U0/DLM_Userlogic_inst/DSPTop_i/DSPMem_i/p0DatOut[15]_INST_0/O
                         net (fo=1, routed)           0.835    10.312    system_i/DLM_0/U0/DLM_core_inst/variableOutMemory[15]
    SLICE_X29Y26         LUT6 (Prop_lut6_I3_O)        0.124    10.436 f  system_i/DLM_0/U0/DLM_core_inst/mem_data_out[15]_i_59/O
                         net (fo=1, routed)           0.635    11.071    system_i/DLM_0/U0/DLM_core_inst/mem_data_out[15]_i_59_n_0
    SLICE_X27Y32         LUT6 (Prop_lut6_I5_O)        0.124    11.195 r  system_i/DLM_0/U0/DLM_core_inst/mem_data_out[15]_i_30/O
                         net (fo=1, routed)           0.000    11.195    system_i/DLM_0/U0/DLM_core_inst/mem_data_out[15]_i_30_n_0
    SLICE_X27Y32         MUXF7 (Prop_muxf7_I0_O)      0.212    11.407 r  system_i/DLM_0/U0/DLM_core_inst/mem_data_out_reg[15]_i_23/O
                         net (fo=1, routed)           0.000    11.407    system_i/DLM_0/U0/DLM_core_inst/mem_data_out_reg[15]_i_23_n_0
    SLICE_X27Y32         MUXF8 (Prop_muxf8_I1_O)      0.094    11.501 r  system_i/DLM_0/U0/DLM_core_inst/mem_data_out_reg[15]_i_8/O
                         net (fo=1, routed)           0.358    11.859    system_i/DLM_0/U0/DLM_core_inst/mem_data_out_reg[15]_i_8_n_0
    SLICE_X26Y32         LUT5 (Prop_lut5_I4_O)        0.316    12.175 r  system_i/DLM_0/U0/DLM_core_inst/mem_data_out[15]_i_3/O
                         net (fo=1, routed)           0.502    12.677    system_i/DLM_0/U0/DLM_core_inst/mem_data_out[15]_i_3_n_0
    SLICE_X26Y32         LUT5 (Prop_lut5_I3_O)        0.124    12.801 r  system_i/DLM_0/U0/DLM_core_inst/mem_data_out[15]_i_1/O
                         net (fo=1, routed)           0.000    12.801    system_i/DLM_0/U0/DLM_core_inst/p_5_out[15]
    SLICE_X26Y32         FDRE                                         r  system_i/DLM_0/U0/DLM_core_inst/mem_data_out_reg[15]/D
  -------------------------------------------------------------------    -------------------

                         (clock clk_fpga_0 rise edge)
                                                     10.000    10.000 r  
    PS7_X0Y0             PS7                          0.000    10.000 r  system_i/processing_system7_0/inst/PS7_i/FCLKCLK[0]
                         net (fo=1, routed)           1.088    11.088    system_i/processing_system7_0/inst/FCLK_CLK_unbuffered[0]
    BUFGCTRL_X0Y16       BUFG (Prop_bufg_I_O)         0.091    11.179 r  system_i/processing_system7_0/inst/buffer_fclk_clk_0.FCLK_CLK_0_BUFG/O
                         net (fo=1253, routed)        1.564    12.743    system_i/DLM_0/U0/DLM_core_inst/S_AXI_ACLK
    SLICE_X26Y32         FDRE                                         r  system_i/DLM_0/U0/DLM_core_inst/mem_data_out_reg[15]/C
                         clock pessimism              0.129    12.872    
                         clock uncertainty           -0.154    12.718    
    SLICE_X26Y32         FDRE (Setup_fdre_C_D)        0.079    12.797    system_i/DLM_0/U0/DLM_core_inst/mem_data_out_reg[15]
  -------------------------------------------------------------------
                         required time                         12.797    
                         arrival time                         -12.801    
  -------------------------------------------------------------------
                         slack                                 -0.003    





Min Delay Paths
--------------------------------------------------------------------------------------
Slack (MET) :             0.122ns  (arrival time - required time)
  Source:                 system_i/rst_processing_system7_0_100M/U0/EXT_LPF/ACTIVE_LOW_AUX.ACT_LO_AUX/GENERATE_LEVEL_P_S_CDC.SINGLE_BIT.CROSS_PLEVEL_IN2SCNDRY_IN_cdc_to/C
                            (rising edge-triggered cell FDRE clocked by clk_fpga_0  {rise@0.000ns fall@5.000ns period=10.000ns})
  Destination:            system_i/rst_processing_system7_0_100M/U0/EXT_LPF/ACTIVE_LOW_AUX.ACT_LO_AUX/GENERATE_LEVEL_P_S_CDC.SINGLE_BIT.CROSS_PLEVEL_IN2SCNDRY_s_level_out_d2/D
                            (rising edge-triggered cell FDRE clocked by clk_fpga_0  {rise@0.000ns fall@5.000ns period=10.000ns})
  Path Group:             clk_fpga_0
  Path Type:              Hold (Min at Fast Process Corner)
  Requirement:            0.000ns  (clk_fpga_0 rise@0.000ns - clk_fpga_0 rise@0.000ns)
  Data Path Delay:        0.197ns  (logic 0.141ns (71.611%)  route 0.056ns (28.389%))
  Logic Levels:           0  
  Clock Path Skew:        0.000ns (DCD - SCD - CPR)
    Destination Clock Delay (DCD):    1.189ns
    Source Clock Delay      (SCD):    0.892ns
    Clock Pessimism Removal (CPR):    0.297ns

    Location             Delay type                Incr(ns)  Path(ns)    Netlist Resource(s)
  -------------------------------------------------------------------    -------------------
                         (clock clk_fpga_0 rise edge)
                                                      0.000     0.000 r  
    PS7_X0Y0             PS7                          0.000     0.000 r  system_i/processing_system7_0/inst/PS7_i/FCLKCLK[0]
                         net (fo=1, routed)           0.310     0.310    system_i/processing_system7_0/inst/FCLK_CLK_unbuffered[0]
    BUFGCTRL_X0Y16       BUFG (Prop_bufg_I_O)         0.026     0.336 r  system_i/processing_system7_0/inst/buffer_fclk_clk_0.FCLK_CLK_0_BUFG/O
                         net (fo=1253, routed)        0.556     0.892    system_i/rst_processing_system7_0_100M/U0/EXT_LPF/ACTIVE_LOW_AUX.ACT_LO_AUX/scndry_aclk
    SLICE_X35Y89         FDRE                                         r  system_i/rst_processing_system7_0_100M/U0/EXT_LPF/ACTIVE_LOW_AUX.ACT_LO_AUX/GENERATE_LEVEL_P_S_CDC.SINGLE_BIT.CROSS_PLEVEL_IN2SCNDRY_IN_cdc_to/C
  -------------------------------------------------------------------    -------------------
    SLICE_X35Y89         FDRE (Prop_fdre_C_Q)         0.141     1.033 r  system_i/rst_processing_system7_0_100M/U0/EXT_LPF/ACTIVE_LOW_AUX.ACT_LO_AUX/GENERATE_LEVEL_P_S_CDC.SINGLE_BIT.CROSS_PLEVEL_IN2SCNDRY_IN_cdc_to/Q
                         net (fo=1, routed)           0.056     1.088    system_i/rst_processing_system7_0_100M/U0/EXT_LPF/ACTIVE_LOW_AUX.ACT_LO_AUX/s_level_out_d1_cdc_to
    SLICE_X35Y89         FDRE                                         r  system_i/rst_processing_system7_0_100M/U0/EXT_LPF/ACTIVE_LOW_AUX.ACT_LO_AUX/GENERATE_LEVEL_P_S_CDC.SINGLE_BIT.CROSS_PLEVEL_IN2SCNDRY_s_level_out_d2/D
  -------------------------------------------------------------------    -------------------

                         (clock clk_fpga_0 rise edge)
                                                      0.000     0.000 r  
    PS7_X0Y0             PS7                          0.000     0.000 r  system_i/processing_system7_0/inst/PS7_i/FCLKCLK[0]
                         net (fo=1, routed)           0.337     0.337    system_i/processing_system7_0/inst/FCLK_CLK_unbuffered[0]
    BUFGCTRL_X0Y16       BUFG (Prop_bufg_I_O)         0.029     0.366 r  system_i/processing_system7_0/inst/buffer_fclk_clk_0.FCLK_CLK_0_BUFG/O
                         net (fo=1253, routed)        0.823     1.189    system_i/rst_processing_system7_0_100M/U0/EXT_LPF/ACTIVE_LOW_AUX.ACT_LO_AUX/scndry_aclk
    SLICE_X35Y89         FDRE                                         r  system_i/rst_processing_system7_0_100M/U0/EXT_LPF/ACTIVE_LOW_AUX.ACT_LO_AUX/GENERATE_LEVEL_P_S_CDC.SINGLE_BIT.CROSS_PLEVEL_IN2SCNDRY_s_level_out_d2/C
                         clock pessimism             -0.297     0.892    
    SLICE_X35Y89         FDRE (Hold_fdre_C_D)         0.075     0.967    system_i/rst_processing_system7_0_100M/U0/EXT_LPF/ACTIVE_LOW_AUX.ACT_LO_AUX/GENERATE_LEVEL_P_S_CDC.SINGLE_BIT.CROSS_PLEVEL_IN2SCNDRY_s_level_out_d2
  -------------------------------------------------------------------
                         required time                         -0.967    
                         arrival time                           1.088    
  -------------------------------------------------------------------
                         slack                                  0.122    





Pulse Width Checks
--------------------------------------------------------------------------------------
Clock Name:         clk_fpga_0
Waveform(ns):       { 0.000 5.000 }
Period(ns):         10.000
Sources:            { system_i/processing_system7_0/inst/PS7_i/FCLKCLK[0] }

Check Type        Corner  Lib Pin             Reference Pin  Required(ns)  Actual(ns)  Slack(ns)  Location      Pin
Min Period        n/a     RAMB36E1/CLKARDCLK  n/a            2.576         10.000      7.424      RAMB36_X2Y5   system_i/DLM_0/U0/DLM_core_inst/BRAM1_inst/U0/inst_blk_mem_gen/gnbram.gnativebmg.native_blk_mem_gen/valid.cstr/ramloop[8].ram.r/prim_noinit.ram/DEVICE_7SERIES.NO_BMM_INFO.SP.SIMPLE_PRIM36.ram/CLKARDCLK
Low Pulse Width   Slow    SRL16E/CLK          n/a            0.980         5.000       4.020      SLICE_X34Y88  system_i/rst_processing_system7_0_100M/U0/EXT_LPF/POR_SRL_I/CLK
High Pulse Width  Fast    SRL16E/CLK          n/a            0.980         5.000       4.020      SLICE_X34Y88  system_i/rst_processing_system7_0_100M/U0/EXT_LPF/POR_SRL_I/CLK



---------------------------------------------------------------------------------------------------
Path Group:  **async_default**
From Clock:  clk_fpga_0
  To Clock:  clk_fpga_0

Setup :            0  Failing Endpoints,  Worst Slack        3.798ns,  Total Violation        0.000ns
Hold  :            0  Failing Endpoints,  Worst Slack        1.990ns,  Total Violation        0.000ns
---------------------------------------------------------------------------------------------------


Max Delay Paths
--------------------------------------------------------------------------------------
Slack (MET) :             3.798ns  (required time - arrival time)
  Source:                 system_i/rst_processing_system7_0_100M/U0/ACTIVE_LOW_PR_OUT_DFF[0].FDRE_PER_N/C
                            (rising edge-triggered cell FDRE clocked by clk_fpga_0  {rise@0.000ns fall@5.000ns period=10.000ns})
  Destination:            system_i/DLM_0/U0/DLM_core_inst/clkControlFSM_i/CS_step_reg[0]/CLR
                            (recovery check against rising-edge clock clk_fpga_0  {rise@0.000ns fall@5.000ns period=10.000ns})
  Path Group:             **async_default**
  Path Type:              Recovery (Max at Slow Process Corner)
  Requirement:            10.000ns  (clk_fpga_0 rise@10.000ns - clk_fpga_0 rise@0.000ns)
  Data Path Delay:        5.488ns  (logic 0.642ns (11.698%)  route 4.846ns (88.302%))
  Logic Levels:           1  (LUT1=1)
  Clock Path Skew:        -0.155ns (DCD - SCD + CPR)
    Destination Clock Delay (DCD):    2.675ns = ( 12.675 - 10.000 ) 
    Source Clock Delay      (SCD):    2.945ns
    Clock Pessimism Removal (CPR):    0.115ns
  Clock Uncertainty:      0.154ns  ((TSJ^2 + TIJ^2)^1/2 + DJ) / 2 + PE
    Total System Jitter     (TSJ):    0.071ns
    Total Input Jitter      (TIJ):    0.300ns
    Discrete Jitter          (DJ):    0.000ns
    Phase Error              (PE):    0.000ns

    Location             Delay type                Incr(ns)  Path(ns)    Netlist Resource(s)
  -------------------------------------------------------------------    -------------------
                         (clock clk_fpga_0 rise edge)
                                                      0.000     0.000 r  
    PS7_X0Y0             PS7                          0.000     0.000 r  system_i/processing_system7_0/inst/PS7_i/FCLKCLK[0]
                         net (fo=1, routed)           1.193     1.193    system_i/processing_system7_0/inst/FCLK_CLK_unbuffered[0]
    BUFGCTRL_X0Y16       BUFG (Prop_bufg_I_O)         0.101     1.294 r  system_i/processing_system7_0/inst/buffer_fclk_clk_0.FCLK_CLK_0_BUFG/O
                         net (fo=1253, routed)        1.651     2.945    system_i/rst_processing_system7_0_100M/U0/slowest_sync_clk
    SLICE_X36Y91         FDRE                                         r  system_i/rst_processing_system7_0_100M/U0/ACTIVE_LOW_PR_OUT_DFF[0].FDRE_PER_N/C
  -------------------------------------------------------------------    -------------------
    SLICE_X36Y91         FDRE (Prop_fdre_C_Q)         0.518     3.463 r  system_i/rst_processing_system7_0_100M/U0/ACTIVE_LOW_PR_OUT_DFF[0].FDRE_PER_N/Q
                         net (fo=5, routed)           1.948     5.411    system_i/DLM_0/U0/DLM_core_inst/S_AXI_ARESETN
    SLICE_X29Y80         LUT1 (Prop_lut1_I0_O)        0.124     5.535 f  system_i/DLM_0/U0/DLM_core_inst/clkControlFSM_i_i_1/O
                         net (fo=76, routed)          2.898     8.433    system_i/DLM_0/U0/DLM_core_inst/clkControlFSM_i/rst
    SLICE_X40Y49         FDCE                                         f  system_i/DLM_0/U0/DLM_core_inst/clkControlFSM_i/CS_step_reg[0]/CLR
  -------------------------------------------------------------------    -------------------

                         (clock clk_fpga_0 rise edge)
                                                     10.000    10.000 r  
    PS7_X0Y0             PS7                          0.000    10.000 r  system_i/processing_system7_0/inst/PS7_i/FCLKCLK[0]
                         net (fo=1, routed)           1.088    11.088    system_i/processing_system7_0/inst/FCLK_CLK_unbuffered[0]
    BUFGCTRL_X0Y16       BUFG (Prop_bufg_I_O)         0.091    11.179 r  system_i/processing_system7_0/inst/buffer_fclk_clk_0.FCLK_CLK_0_BUFG/O
                         net (fo=1253, routed)        1.496    12.675    system_i/DLM_0/U0/DLM_core_inst/clkControlFSM_i/clk
    SLICE_X40Y49         FDCE                                         r  system_i/DLM_0/U0/DLM_core_inst/clkControlFSM_i/CS_step_reg[0]/C
                         clock pessimism              0.115    12.790    
                         clock uncertainty           -0.154    12.636    
    SLICE_X40Y49         FDCE (Recov_fdce_C_CLR)     -0.405    12.231    system_i/DLM_0/U0/DLM_core_inst/clkControlFSM_i/CS_step_reg[0]
  -------------------------------------------------------------------
                         required time                         12.231    
                         arrival time                          -8.433    
  -------------------------------------------------------------------
                         slack                                  3.798    





Min Delay Paths
--------------------------------------------------------------------------------------
Slack (MET) :             1.990ns  (arrival time - required time)
  Source:                 system_i/rst_processing_system7_0_100M/U0/ACTIVE_LOW_PR_OUT_DFF[0].FDRE_PER_N/C
                            (rising edge-triggered cell FDRE clocked by clk_fpga_0  {rise@0.000ns fall@5.000ns period=10.000ns})
  Destination:            system_i/DLM_0/U0/DLM_core_inst/clkControlFSM_i/CS_step_reg[22]/CLR
                            (removal check against rising-edge clock clk_fpga_0  {rise@0.000ns fall@5.000ns period=10.000ns})
  Path Group:             **async_default**
  Path Type:              Removal (Min at Fast Process Corner)
  Requirement:            0.000ns  (clk_fpga_0 rise@0.000ns - clk_fpga_0 rise@0.000ns)
  Data Path Delay:        1.933ns  (logic 0.209ns (10.815%)  route 1.724ns (89.185%))
  Logic Levels:           1  (LUT1=1)
  Clock Path Skew:        0.035ns (DCD - SCD - CPR)
    Destination Clock Delay (DCD):    1.190ns
    Source Clock Delay      (SCD):    0.891ns
    Clock Pessimism Removal (CPR):    0.264ns

    Location             Delay type                Incr(ns)  Path(ns)    Netlist Resource(s)
  -------------------------------------------------------------------    -------------------
                         (clock clk_fpga_0 rise edge)
                                                      0.000     0.000 r  
    PS7_X0Y0             PS7                          0.000     0.000 r  system_i/processing_system7_0/inst/PS7_i/FCLKCLK[0]
                         net (fo=1, routed)           0.310     0.310    system_i/processing_system7_0/inst/FCLK_CLK_unbuffered[0]
    BUFGCTRL_X0Y16       BUFG (Prop_bufg_I_O)         0.026     0.336 r  system_i/processing_system7_0/inst/buffer_fclk_clk_0.FCLK_CLK_0_BUFG/O
                         net (fo=1253, routed)        0.555     0.891    system_i/rst_processing_system7_0_100M/U0/slowest_sync_clk
    SLICE_X36Y91         FDRE                                         r  system_i/rst_processing_system7_0_100M/U0/ACTIVE_LOW_PR_OUT_DFF[0].FDRE_PER_N/C
  -------------------------------------------------------------------    -------------------
    SLICE_X36Y91         FDRE (Prop_fdre_C_Q)         0.164     1.055 r  system_i/rst_processing_system7_0_100M/U0/ACTIVE_LOW_PR_OUT_DFF[0].FDRE_PER_N/Q
                         net (fo=5, routed)           0.785     1.839    system_i/DLM_0/U0/DLM_core_inst/S_AXI_ARESETN
    SLICE_X29Y80         LUT1 (Prop_lut1_I0_O)        0.045     1.884 f  system_i/DLM_0/U0/DLM_core_inst/clkControlFSM_i_i_1/O
                         net (fo=76, routed)          0.939     2.823    system_i/DLM_0/U0/DLM_core_inst/clkControlFSM_i/rst
    SLICE_X39Y53         FDCE                                         f  system_i/DLM_0/U0/DLM_core_inst/clkControlFSM_i/CS_step_reg[22]/CLR
  -------------------------------------------------------------------    -------------------

                         (clock clk_fpga_0 rise edge)
                                                      0.000     0.000 r  
    PS7_X0Y0             PS7                          0.000     0.000 r  system_i/processing_system7_0/inst/PS7_i/FCLKCLK[0]
                         net (fo=1, routed)           0.337     0.337    system_i/processing_system7_0/inst/FCLK_CLK_unbuffered[0]
    BUFGCTRL_X0Y16       BUFG (Prop_bufg_I_O)         0.029     0.366 r  system_i/processing_system7_0/inst/buffer_fclk_clk_0.FCLK_CLK_0_BUFG/O
                         net (fo=1253, routed)        0.824     1.190    system_i/DLM_0/U0/DLM_core_inst/clkControlFSM_i/clk
    SLICE_X39Y53         FDCE                                         r  system_i/DLM_0/U0/DLM_core_inst/clkControlFSM_i/CS_step_reg[22]/C
                         clock pessimism             -0.264     0.926    
    SLICE_X39Y53         FDCE (Remov_fdce_C_CLR)     -0.092     0.834    system_i/DLM_0/U0/DLM_core_inst/clkControlFSM_i/CS_step_reg[22]
  -------------------------------------------------------------------
                         required time                         -0.834    
                         arrival time                           2.823    
  -------------------------------------------------------------------
                         slack                                  1.990    





