Copyright 1986-2017 Xilinx, Inc. All Rights Reserved.
------------------------------------------------------------------------------------
| Tool Version : Vivado v.2017.3 (win64) Build 2018833 Wed Oct  4 19:58:22 MDT 2017
| Date         : Mon Mar 19 13:09:51 2018
| Host         : DESKTOP-597B57E running 64-bit major release  (build 9200)
| Command      : report_control_sets -file system_wrapper_control_sets_placed.rpt
| Design       : system_wrapper
| Device       : xc7z020
------------------------------------------------------------------------------------

Control Set Information

Table of Contents
-----------------
1. Summary
2. Flip-Flop Distribution

1. Summary
----------

+-------------------------------+-------+
|             Status            | Count |
+-------------------------------+-------+
| Number of unique control sets |   675 |
+-------------------------------+-------+


2. Flip-Flop Distribution
-------------------------

+--------------+-----------------------+------------------------+-----------------+--------------+
| Clock Enable | Synchronous Set/Reset | Asynchronous Set/Reset | Total Registers | Total Slices |
+--------------+-----------------------+------------------------+-----------------+--------------+
| No           | No                    | No                     |              89 |           43 |
| No           | No                    | Yes                    |              25 |           14 |
| No           | Yes                   | No                     |              14 |            7 |
| Yes          | No                    | No                     |            9257 |         3827 |
| Yes          | No                    | Yes                    |            1754 |          437 |
| Yes          | Yes                   | No                     |              52 |           20 |
+--------------+-----------------------+------------------------+-----------------+--------------+


