instrMem <= (
0 => x"2ffb", 
1 => x"2fbc",
2 => x"0578",
3 => x"3600",
4 => x"6000",
5 => x"6640",
6 => x"800C",
7 => x"36D8",
8 => x"0000",
9 => x"0000",
10 => x"0000",
11 => x"0000",
12 => x"3690",
13 => x"9000",
14 => x"A000"
15 => x"0000"
);