instrMem <= (
0 => x"3600", 
1 => x"0540", 
2 => x"0500", 
3 => x"f1cf", 
4 => x"2fbc",
5 => x"6006",
6 => x"6240",
7 => x"800C",
8 => x"36D8",
9 => x"FE00",
10 => x"FE00",
11 => x"FE00",
12 => x"3690",
13 => x"9000",
14 => x"A000"
15 => x"FE00"
);

0011011 000 000 000  -- INV R0, R0      0 3600
0000010 101 000 000  -- MOV SFR5, R0    1 0540
0000010 100 000 000  -- MOV SFR4, R0    2 0500
1111000 111 001 111  -- SETB R7, 15     3 F1CF
0010111 110 111 100  -- ADDI R6, R7, 4  4 2FBC
0110000 000 000 110  -- PUSH R6         5 6006
0110001 001 000 000  -- POP R1          6 6240
1000000 000 001 100  -- CALL 20h        7 800C       12d 1100b Ch
0011011 011 011 000  -- INV R3, R3      8 36D8
0000000 000 000 000  -- NOP             9 FE00
0000000 000 000 000  -- NOP             A FE00
0000000 000 000 000  -- NOP             B FE00
0011011 010 010 000  -- INV R2, R2      C 3690
1001000 000 000 000  -- RET             D 9000
1010000 000 000 000  -- N/A             E A000
0000000 000 000 000  -- NOP             F FE00

360005400500f1cf2fbc60066240800C36D8FE00FE00FE0036909000A000FE00


INV R0, R0 
MOV SFR5, R0 
MOV SFR4, R0 
SETB R7, 15 
ADDI R6, R7, 3 
PUSH R6 
POP R1 
;CALL 20h 
INV R3, R3 
NOP 
NOP 
NOP 
INV R2, R2 
;RET 
NOP 


0011011 000 000 000  -- INV R0, R0      0 3600
0000001 011 000 000  -- MOV R3, R0      1 02C0
0000010 100 011 000  -- MOV SFR4, R3    2 0518
0000011 001 100 000  -- MOV SFR4, R1    3 0660
0000000 000 000 000  -- END		4 0000
360002C005180660000000000000000000000000000000000000000000000000