Running: xsim.dir/singleShot_TB_behav/xsimk.exe -simmode gui -wdb singleShot_TB_behav.wdb -simrunnum 0 -socket 54888
Design successfully loaded
Design Loading Memory Usage: 20420 KB (Peak: 20420 KB)
Design Loading CPU Usage: 171 ms
Simulation completed
Simulation Memory Usage: 20704 KB (Peak: 20704 KB)
Simulation CPU Usage: 171 ms
